2|1|Genesis|Gen
2|2|Exodus|Exod
2|3|Leviticus|Lev
2|4|Numbers|Num
2|5|Deuteronomy|Deut
2|6|Joshua|Josh
2|7|Judges|Judg
2|8|Ruth|Ruth
2|9|1Samuel|1Sam
2|10|2Samuel|2Sam
2|11|1Kings|1Kgs
2|12|2Kings|2Kgs
2|13|1Chronicles|1Chr
2|14|2Chronicles|2Chr
2|15|Ezra|Ezra
2|16|Nehemiah|Neh
2|17|Esther|Esth
2|18|Job|Job
2|19|Psalms|Ps
2|20|Proverbs|Prov
2|21|Ecclesiastes|Eccl
2|22|SongOfSolomon|Song
2|23|Isaiah|Isa
2|24|Jeremiah|Jer
2|25|Lamentations|Lam
2|26|Ezekiel|Ezek
2|27|Daniel|Dan
2|28|Hosea|Hos
2|29|Joel|Joel
2|30|Amos|Amos
2|31|Obadiah|Obad
2|32|Jonah|Jonah
2|33|Micah|Mic
2|34|Nahum|Nah
2|35|Habakkuk|Hab
2|36|Zephaniah|Zeph
2|37|Haggai|Hag
2|38|Zechariah|Zech
2|39|Malachi|Mal
2|40|Matthew|Matt
2|41|Mark|Mark
2|42|Luke|Luke
2|43|John|John
2|44|Acts|Acts
2|45|Romans|Rom
2|46|1Corinthians|1Cor
2|47|2Corinthians|2Cor
2|48|Galatians|Gal
2|49|Ephesians|Eph
2|50|Philippians|Phil
2|51|Colossians|Col
2|52|1Thessalonians|1Thess
2|53|2Thessalonians|2Thess
2|54|1Timothy|1Tim
2|55|2Timothy|2Tim
2|56|Titus|Titus
2|57|Philemon|Phlm
2|58|Hebrews|Heb
2|59|James|Jas
2|60|1Peter|1Pet
2|61|2Peter|2Pet
2|62|1John|1John
2|63|2John|2John
2|64|3John|3John
2|65|Jude|Jude
2|66|Revelation|Rev
