9|1|Génesis|Gn
9|2|Éxodo|Ex
9|3|Levítico|Lv
9|4|Números|Nm
9|5|Deuteronomio|Dt
9|6|Josué|Jos
9|7|Jueces|Jue
9|8|Rut|Rut
9|9|1Samuel|1Sam
9|10|2Samuel|2Sam
9|11|1Reyes|1Re
9|12|2Reyes|2Re
9|13|1Crónicas|1Cr
9|14|2Crónicas|2Cr
9|15|Esdras|Esd
9|16|Nehemías|Ne
9|17|Ester|Ne
9|18|Job|Job
9|19|Salmos|Sl
9|20|Proverbios|Pr
9|21|Eclesiastés|Qo
9|22|Cantares|Ct
9|23|Isaías|Is
9|24|Jeremías|Ger
9|25|Lamentaciones|Lam
9|26|Ezequiel|Ez
9|27|Daniel|Dn
9|28|Oseas|Os
9|29|Joel|Jl
9|30|Amós|Am
9|31|Abdías|Ab
9|32|Jonás|Jon
9|33|Miqueas|Mi
9|34|Nahúm|Na
9|35|Habacuc|Ha
9|36|Sofonías|So
9|37|Hageo|Ag
9|38|Zacarías|Za
9|39|Malaquías|Ml
9|40|Mateo|Mt
9|41|Marcos|Mc
9|42|Lucas|Lc
9|43|Juan|Jn
9|44|Hechos|He
9|45|Romanos|Ro
9|46|1Corintios|1Cor
9|47|2Corintios|2Cor
9|48|Gálatas|Ga
9|49|Efesios|Ef
9|50|Filipenses|Flp
9|51|Colosenses|Col
9|52|1Tesalonicenses|1Te
9|53|2Tesalonicenses|2Te
9|54|1Timoteo|1Tim
9|55|2Timoteo|2Tim
9|56|Tito|Tit
9|57|Filemón|Flm
9|58|Hebreos|Heb
9|59|Santiago|Sant
9|60|1Pedro|1Pe
9|61|2Pedro|2Pe
9|62|1Juan|1Jn
9|63|2Juan|2Jn
9|64|3Juan|3Jn
9|65|Judas|Jds
9|66|Apocalipsis|Ap
