1|1|1|64
1|1|2|4
1|1|3|5
1|1|14|1
1|1|15|1
1|1|26|15
1|1|27|7
1|1|28|3
1|1|31|2
1|2|2|2
1|2|7|7
1|2|9|2
1|2|17|3
1|2|18|4
1|2|21|1
1|2|23|5
1|2|24|12
1|3|1|3
1|3|6|2
1|3|15|8
1|3|16|4
1|3|19|2
1|3|20|2
1|3|22|2
1|4|3|1
1|4|4|1
1|4|5|1
1|4|7|5
1|4|10|1
1|5|1|2
1|5|2|1
1|5|24|3
1|6|4|3
1|6|5|4
1|6|6|3
1|6|9|2
1|6|13|1
1|8|21|1
1|9|1|1
1|9|2|1
1|9|4|1
1|9|6|3
1|9|7|1
1|12|1|3
1|12|2|7
1|12|3|6
1|13|8|1
1|15|1|8
1|15|6|6
1|16|13|1
1|17|1|9
1|17|2|2
1|17|4|4
1|17|5|1
1|17|6|3
1|17|7|4
1|17|8|4
1|17|14|1
1|18|1|1
1|18|2|1
1|18|10|1
1|18|11|1
1|18|13|1
1|18|14|11
1|18|17|1
1|18|18|1
1|18|19|5
1|18|23|1
1|18|32|1
1|19|3|1
1|19|17|3
1|20|17|1
1|21|22|1
1|22|1|1
1|22|2|2
1|22|8|1
1|22|12|3
1|22|13|1
1|22|14|5
1|22|17|1
1|22|18|4
1|24|35|1
1|26|3|1
1|26|4|1
1|26|12|1
1|26|24|2
1|27|29|1
1|28|12|1
1|28|14|1
1|28|15|18
1|31|3|1
1|32|7|1
1|32|10|1
1|32|12|1
1|32|30|1
1|33|5|1
1|35|2|1
1|37|4|1
1|37|18|1
1|37|20|1
1|39|2|2
1|39|3|1
1|39|23|1
1|45|4|1
1|45|5|1
1|45|8|2
1|45|24|1
1|46|3|1
1|49|6|1
1|49|18|1
1|49|24|1
1|50|17|1
1|50|20|14
2|1|10|1
2|1|12|1
2|1|17|1
2|2|1|1
2|2|2|2
2|2|5|1
2|3|11|1
2|3|12|1
2|3|14|7
2|3|15|3
2|4|10|2
2|4|11|2
2|4|12|2
2|4|13|1
2|4|15|2
2|4|16|1
2|4|24|1
2|6|3|1
2|6|6|1
2|6|7|1
2|9|16|1
2|9|28|1
2|9|29|2
2|12|5|1
2|13|2|1
2|13|3|1
2|13|8|1
2|13|9|1
2|13|14|1
2|13|16|1
2|13|21|1
2|13|22|1
2|14|13|3
2|14|14|15
2|14|19|2
2|14|25|1
2|14|30|1
2|15|2|4
2|15|3|1
2|15|6|1
2|15|11|13
2|15|26|6
2|15|27|2
2|16|2|1
2|16|3|1
2|16|8|1
2|16|15|1
2|16|35|1
2|17|6|2
2|17|7|1
2|17|15|2
2|18|4|1
2|18|11|1
2|19|4|2
2|19|5|7
2|19|6|4
2|20|2|9
2|20|3|7
2|20|4|6
2|20|5|1
2|20|6|7
2|20|7|2
2|20|8|1
2|20|11|5
2|20|12|7
2|20|13|2
2|20|14|3
2|20|15|3
2|20|16|1
2|20|17|3
2|20|24|2
2|22|18|1
2|22|28|1
2|23|1|1
2|23|2|1
2|23|13|1
2|23|14|1
2|23|17|1
2|23|20|2
2|23|22|1
2|23|24|1
2|23|25|2
2|23|27|1
2|23|32|1
2|23|33|2
2|24|4|1
2|24|6|1
2|24|7|1
2|24|8|4
2|25|2|1
2|29|45|1
2|31|17|1
2|32|6|1
2|32|8|1
2|32|10|1
2|32|14|1
2|32|32|1
2|33|12|2
2|33|14|2
2|33|17|2
2|33|19|1
2|34|1|1
2|34|6|18
2|34|7|2
2|34|14|1
2|34|20|1
2|34|22|1
2|34|23|1
2|34|27|1
3|1|3|5
3|2|13|2
3|5|17|1
3|6|7|1
3|11|44|5
3|11|45|4
3|14|2|1
3|14|32|1
3|17|11|2
3|18|22|8
3|18|29|1
3|18|30|1
3|19|2|5
3|19|12|2
3|19|13|1
3|19|15|1
3|19|16|1
3|19|17|1
3|19|18|9
3|19|19|2
3|19|32|2
3|19|36|1
3|20|7|3
3|20|10|1
3|20|13|5
3|20|27|1
3|22|19|1
3|22|24|1
3|24|17|1
3|25|20|1
3|25|21|1
3|26|1|1
3|26|3|2
3|26|4|2
3|26|7|1
3|26|8|3
3|26|9|1
3|26|12|6
3|26|13|3
3|26|17|1
3|26|27|1
3|26|28|1
3|26|36|1
3|26|40|1
3|26|41|2
4|6|24|1
4|6|25|1
4|6|26|2
4|6|27|1
4|11|2|1
4|11|14|1
4|11|23|2
4|12|6|1
4|13|33|1
4|14|8|1
4|14|9|2
4|14|17|1
4|14|18|4
4|14|19|1
4|14|21|1
4|16|5|1
4|18|20|2
4|19|18|3
4|19|19|3
4|19|21|3
4|20|11|1
4|21|7|1
4|21|9|1
4|23|8|2
4|23|9|1
4|23|19|14
4|23|21|2
4|23|23|1
4|24|17|2
4|25|1|1
4|25|9|1
4|26|59|1
4|27|16|1
4|27|18|1
5|1|17|1
5|1|29|2
5|1|30|2
5|3|22|2
5|3|24|1
5|3|28|1
5|4|2|2
5|4|7|4
5|4|9|33
5|4|15|1
5|4|19|1
5|4|20|1
5|4|23|1
5|4|24|3
5|4|29|10
5|4|30|1
5|4|31|1
5|4|34|8
5|4|35|2
5|4|36|1
5|4|39|1
5|5|6|3
5|5|7|1
5|5|8|1
5|5|9|2
5|5|10|1
5|5|11|1
5|5|12|2
5|5|15|2
5|5|16|5
5|5|17|3
5|5|18|1
5|5|19|2
5|5|20|1
5|5|21|2
5|5|26|1
5|5|29|1
5|5|32|2
5|5|33|1
5|6|2|1
5|6|3|1
5|6|4|5
5|6|5|17
5|6|6|4
5|6|7|4
5|6|8|1
5|6|9|4
5|6|13|3
5|6|14|2
5|6|16|7
5|6|21|1
5|7|6|4
5|7|7|1
5|7|8|4
5|7|9|10
5|7|12|2
5|7|15|2
5|7|18|1
5|7|19|1
5|7|24|1
5|7|26|1
5|8|2|4
5|8|3|9
5|8|4|1
5|8|16|2
5|8|17|1
5|8|18|8
5|9|3|2
5|10|9|1
5|10|12|7
5|10|13|1
5|10|14|2
5|10|15|1
5|10|16|2
5|10|17|2
5|10|20|1
5|10|21|2
5|11|13|3
5|11|14|1
5|11|18|2
5|11|19|4
5|11|20|1
5|11|24|1
5|11|26|1
5|11|27|12
5|12|5|1
5|12|32|3
5|13|4|1
5|14|2|3
5|15|5|1
5|15|6|1
5|15|7|1
5|15|10|1
5|15|11|1
5|15|21|1
5|16|16|17
5|17|18|1
5|17|19|1
5|18|9|1
5|18|13|2
5|18|14|1
5|18|15|4
5|18|18|4
5|18|19|2
5|18|22|1
5|20|1|4
5|20|3|1
5|20|4|5
5|21|23|1
5|22|9|1
5|22|11|1
5|22|21|1
5|22|24|1
5|23|21|1
5|23|25|1
5|24|16|1
5|25|4|2
5|26|8|1
5|26|17|1
5|26|18|2
5|26|19|3
5|27|1|1
5|27|15|1
5|27|26|2
5|28|1|21
5|28|2|1
5|28|4|1
5|28|6|1
5|28|7|7
5|28|12|3
5|28|13|1
5|28|14|1
5|28|25|1
5|28|68|1
5|29|4|3
5|29|9|1
5|29|18|2
5|29|29|6
5|30|1|2
5|30|2|1
5|30|6|11
5|30|9|1
5|30|10|1
5|30|14|3
5|30|15|2
5|30|16|1
5|30|19|4
5|31|6|24
5|31|7|1
5|31|8|14
5|31|11|1
5|31|19|1
5|31|20|1
5|31|21|1
5|31|23|1
5|32|1|1
5|32|2|1
5|32|4|5
5|32|7|2
5|32|8|1
5|32|11|1
5|32|13|1
5|32|15|2
5|32|21|2
5|32|29|1
5|32|30|3
5|32|35|4
5|32|36|2
5|32|39|5
5|32|43|1
5|32|46|1
5|32|47|1
5|33|3|1
5|33|5|1
5|33|25|2
5|33|26|1
5|33|27|9
5|33|29|5
5|34|9|1
6|1|3|2
6|1|5|18
6|1|6|3
6|1|7|9
6|1|8|46
6|1|9|25
6|1|18|1
6|3|5|1
6|4|6|1
6|4|7|1
6|4|9|1
6|4|21|1
6|6|20|1
6|6|26|1
6|10|14|1
6|10|25|1
6|10|42|3
6|11|6|1
6|14|9|1
6|22|5|3
6|23|3|2
6|23|6|1
6|23|10|22
6|23|14|1
6|23|16|1
6|24|14|4
6|24|15|18
6|24|23|1
6|24|24|1
7|2|13|1
7|3|31|1
7|6|10|1
7|6|14|1
7|6|15|1
7|6|24|2
7|7|19|1
7|7|22|1
7|9|15|1
7|10|6|1
7|10|16|1
7|15|15|1
7|16|15|1
7|16|28|1
7|19|22|1
8|1|15|1
8|1|16|3
8|2|11|1
8|2|12|1
9|1|10|1
9|1|15|2
9|1|18|1
9|1|28|1
9|2|2|3
9|2|6|1
9|2|7|1
9|2|8|3
9|2|9|4
9|2|26|1
9|2|30|4
9|3|1|1
9|4|9|1
9|7|3|32
9|7|4|1
9|7|12|2
9|9|21|1
9|12|22|2
9|12|23|2
9|12|24|2
9|14|6|2
9|14|12|1
9|14|16|1
9|15|11|1
9|15|17|1
9|15|22|28
9|15|29|1
9|16|7|16
9|17|45|3
9|17|46|1
9|17|47|2
9|17|50|1
9|18|14|1
9|18|18|1
9|21|3|2
9|21|6|2
9|23|2|1
9|23|16|18
9|28|6|1
9|30|6|8
9|30|8|6
9|30|18|1
10|2|26|1
10|2|27|1
10|5|2|1
10|5|19|1
10|5|23|1
10|7|5|1
10|7|7|1
10|7|9|1
10|7|14|1
10|7|16|1
10|7|18|10
10|7|19|1
10|7|22|1
10|7|23|1
10|8|12|1
10|8|13|1
10|10|12|1
10|12|6|1
10|13|28|1
10|15|31|3
10|15|34|1
10|16|12|1
10|17|14|2
10|17|23|2
10|21|15|1
10|21|22|1
10|22|1|1
10|22|3|1
10|22|7|1
10|22|17|1
10|22|20|1
10|22|26|1
10|22|32|1
10|22|34|1
10|22|38|1
10|22|41|1
10|22|51|1
10|23|2|3
10|23|4|1
10|23|8|1
11|2|2|1
11|3|7|1
11|3|11|1
11|3|12|2
11|3|13|2
11|8|23|1
11|8|27|2
11|8|36|1
11|8|39|3
11|8|46|1
11|8|47|1
11|8|48|1
11|8|50|1
11|8|57|1
11|8|61|1
11|9|6|1
11|9|9|1
11|9|25|1
11|14|24|1
11|15|3|1
11|15|5|1
11|16|26|1
11|16|31|1
11|16|34|1
11|17|1|1
11|17|13|1
11|18|21|7
11|18|36|1
11|19|12|1
11|22|19|1
12|4|16|1
12|4|33|1
12|6|16|7
12|7|1|1
12|7|6|1
12|7|7|1
12|14|6|1
12|14|25|1
12|17|20|1
12|17|41|1
12|19|15|1
12|20|2|1
12|20|3|1
12|20|5|1
12|22|2|2
12|23|25|2
12|24|1|1
12|24|2|1
13|4|10|6
13|5|20|1
13|12|18|1
13|16|26|1
13|16|28|6
13|16|29|1
13|17|16|1
13|19|13|1
13|22|10|1
13|22|13|1
13|22|19|2
13|28|1|1
13|28|9|51
13|28|10|3
13|28|20|3
13|28|21|1
13|29|1|2
13|29|3|1
13|29|9|2
13|29|11|11
13|29|14|1
13|29|17|3
13|29|19|2
13|29|20|1
14|1|7|1
14|1|10|1
14|1|12|1
14|6|6|1
14|6|18|1
14|6|27|1
14|6|30|1
14|6|37|1
14|6|39|1
14|6|41|1
14|7|13|1
14|7|14|31
14|13|18|1
14|14|11|1
14|15|2|7
14|15|3|1
14|15|4|2
14|15|7|5
14|15|15|1
14|16|9|9
14|19|3|1
14|19|7|1
14|20|15|12
14|20|17|12
14|20|20|3
14|20|29|1
14|22|3|1
14|24|20|1
14|25|9|1
14|30|9|1
14|30|19|1
14|31|20|3
14|31|21|4
14|32|7|3
14|32|8|7
14|32|21|1
14|32|22|1
14|32|25|1
14|32|26|2
14|33|10|1
14|33|12|4
14|33|13|2
14|33|23|1
14|33|24|1
14|34|27|1
14|36|5|1
14|36|7|1
15|5|2|1
15|6|3|1
15|6|15|1
15|6|22|1
15|7|27|1
15|8|22|3
15|8|23|1
15|9|12|1
15|9|13|1
16|1|5|3
16|1|6|1
16|1|11|1
16|2|18|1
16|3|1|2
16|3|32|1
16|4|20|1
16|7|4|1
16|8|10|5
16|9|6|2
16|9|15|1
16|9|17|1
16|9|20|1
16|9|31|1
16|12|39|1
16|12|44|1
16|13|10|1
16|13|13|1
17|4|14|2
17|4|16|1
18|1|1|5
18|1|6|1
18|1|8|1
18|1|21|3
18|2|1|1
18|2|2|2
18|2|10|4
18|3|5|1
18|4|3|2
18|4|4|2
18|4|8|1
18|4|16|1
18|5|7|1
18|5|8|1
18|5|9|5
18|5|12|4
18|5|13|3
18|5|17|3
18|5|18|4
18|5|19|3
18|5|27|1
18|7|11|1
18|7|17|1
18|8|5|1
18|8|7|3
18|8|9|1
18|9|10|1
18|9|27|1
18|9|28|1
18|10|1|1
18|10|3|1
18|10|9|1
18|10|12|1
18|10|21|1
18|10|22|1
18|11|7|1
18|11|13|1
18|11|14|1
18|11|17|2
18|12|10|1
18|13|2|1
18|13|5|1
18|13|15|3
18|14|1|1
18|14|2|2
18|14|4|2
18|14|5|1
18|15|14|1
18|15|31|1
18|16|5|1
18|17|9|1
18|19|25|3
18|19|26|2
18|20|17|1
18|21|16|1
18|21|18|1
18|22|21|2
18|22|22|2
18|22|26|2
18|22|28|12
18|22|29|2
18|23|10|2
18|23|12|6
18|23|13|3
18|26|13|1
18|27|8|1
18|27|10|1
18|27|16|2
18|27|17|2
18|28|28|6
18|29|3|2
18|29|14|1
18|31|1|5
18|31|4|1
18|31|5|1
18|31|6|1
18|31|15|1
18|31|33|1
18|32|8|2
18|32|18|1
18|32|20|1
18|33|4|1
18|33|15|1
18|33|24|1
18|33|26|1
18|33|27|1
18|33|28|1
18|33|30|1
18|34|9|1
18|34|21|3
18|34|22|1
18|36|7|2
18|36|11|1
18|36|12|1
18|36|22|1
18|38|4|1
18|38|41|1
18|40|12|1
18|41|11|1
18|42|2|7
18|42|8|1
18|42|12|1
18|42|13|1
19|1|1|61
19|1|2|12
19|1|3|21
19|1|4|1
19|1|5|1
19|1|6|10
19|2|1|2
19|2|4|3
19|2|6|2
19|2|7|8
19|2|12|3
19|3|3|14
19|3|5|3
19|3|6|2
19|3|8|1
19|4|1|1
19|4|3|1
19|4|4|1
19|4|6|1
19|4|8|2
19|5|3|2
19|5|5|1
19|5|8|1
19|5|9|1
19|5|11|3
19|6|5|1
19|7|9|1
19|8|1|4
19|8|2|6
19|8|3|3
19|8|4|6
19|8|5|2
19|8|6|1
19|8|8|1
19|8|9|1
19|9|1|1
19|9|9|2
19|9|10|4
19|9|15|1
19|10|2|1
19|10|4|2
19|10|15|1
19|10|17|3
19|10|18|1
19|11|4|2
19|11|5|1
19|12|2|1
19|12|6|1
19|13|5|1
19|14|1|3
19|14|2|1
19|14|3|21
19|14|6|1
19|15|2|1
19|16|5|4
19|16|8|4
19|16|9|1
19|16|11|13
19|17|1|1
19|17|3|1
19|17|8|2
19|17|10|1
19|17|15|2
19|18|1|4
19|18|2|11
19|18|4|1
19|18|6|2
19|18|28|3
19|18|30|2
19|18|31|1
19|18|33|1
19|18|34|1
19|19|1|6
19|19|4|1
19|19|6|1
19|19|7|22
19|19|8|1
19|19|10|1
19|19|11|5
19|19|13|1
19|19|14|7
19|20|4|4
19|20|6|1
19|20|7|6
19|20|8|1
19|21|1|1
19|21|2|2
19|21|4|1
19|21|11|4
19|21|13|2
19|22|1|2
19|22|3|1
19|22|6|1
19|22|8|2
19|22|9|1
19|22|10|1
19|22|15|1
19|22|18|3
19|22|22|1
19|22|24|1
19|22|26|1
19|22|27|1
19|23|1|30
19|23|2|7
19|23|3|12
19|23|4|27
19|23|5|7
19|23|6|8
19|24|1|9
19|24|4|2
19|25|1|1
19|25|2|2
19|25|3|21
19|25|4|3
19|25|5|5
19|25|7|2
19|25|8|4
19|25|9|5
19|25|10|2
19|25|11|1
19|25|12|1
19|25|13|2
19|25|14|3
19|25|15|1
19|25|21|2
19|26|2|1
19|26|4|2
19|26|5|2
19|26|8|2
19|26|10|1
19|26|12|1
19|27|1|32
19|27|2|3
19|27|3|2
19|27|4|15
19|27|5|2
19|27|6|1
19|27|8|6
19|27|9|1
19|27|10|2
19|27|11|1
19|27|13|11
19|27|14|29
19|28|7|7
19|28|8|3
19|28|9|1
19|29|11|11
19|30|2|1
19|30|5|10
19|30|11|3
19|30|12|1
19|31|3|1
19|31|5|1
19|31|17|1
19|31|19|32
19|31|20|3
19|31|22|2
19|31|24|1
19|32|1|13
19|32|2|3
19|32|3|1
19|32|5|3
19|32|6|2
19|32|7|3
19|32|8|16
19|33|6|4
19|33|9|3
19|33|10|25
19|33|11|5
19|33|12|1
19|33|13|1
19|33|15|1
19|33|16|4
19|33|17|2
19|33|18|6
19|33|20|6
19|33|21|1
19|34|1|5
19|34|2|1
19|34|3|8
19|34|4|23
19|34|5|5
19|34|6|1
19|34|7|3
19|34|8|22
19|34|9|5
19|34|10|5
19|34|11|3
19|34|12|1
19|34|14|3
19|34|15|8
19|34|16|3
19|34|17|6
19|34|18|13
19|34|19|12
19|34|20|1
19|35|1|1
19|35|2|1
19|35|19|1
19|35|26|1
19|35|27|2
19|36|4|1
19|36|7|6
19|36|8|25
19|36|9|13
19|36|10|3
19|37|1|5
19|37|3|12
19|37|4|18
19|37|5|15
19|37|6|2
19|37|7|11
19|37|8|2
19|37|11|5
19|37|13|1
19|37|17|9
19|37|18|2
19|37|19|1
19|37|22|1
19|37|23|7
19|37|24|8
19|37|25|6
19|37|27|2
19|37|28|2
19|37|30|3
19|37|31|5
19|37|34|4
19|38|4|1
19|39|1|2
19|39|2|1
19|39|3|1
19|39|4|2
19|39|5|1
19|39|12|1
19|40|1|3
19|40|2|1
19|40|3|2
19|40|4|2
19|40|5|6
19|40|6|4
19|40|7|2
19|40|8|7
19|40|9|1
19|40|10|2
19|40|14|1
19|40|16|1
19|40|17|1
19|41|1|6
19|41|2|1
19|41|3|2
19|41|4|1
19|41|9|2
19|41|11|1
19|41|12|1
19|42|1|8
19|42|2|2
19|42|5|8
19|42|6|2
19|42|10|1
19|42|11|2
19|43|3|4
19|43|4|1
19|43|5|1
19|44|3|1
19|44|4|1
19|44|5|1
19|44|7|1
19|44|11|1
19|44|12|1
19|44|19|1
19|44|21|3
19|44|22|1
19|45|3|1
19|45|6|2
19|45|7|4
19|46|1|24
19|46|2|6
19|46|3|3
19|46|4|3
19|46|5|2
19|46|7|6
19|46|10|18
19|46|11|6
19|48|1|1
19|48|14|5
19|49|7|1
19|49|8|1
19|49|17|1
19|50|3|1
19|50|4|1
19|50|6|1
19|50|8|1
19|50|9|1
19|50|12|1
19|50|14|1
19|50|15|9
19|50|23|1
19|51|1|5
19|51|2|1
19|51|4|1
19|51|5|6
19|51|6|1
19|51|7|1
19|51|9|2
19|51|10|30
19|51|11|1
19|51|12|4
19|51|15|2
19|51|16|1
19|51|17|6
19|52|1|1
19|52|2|1
19|52|4|1
19|52|8|6
19|53|1|2
19|53|2|1
19|53|3|2
19|53|5|1
19|54|4|1
19|55|4|1
19|55|5|1
19|55|12|1
19|55|15|1
19|55|16|1
19|55|17|3
19|55|18|1
19|55|21|1
19|55|22|26
19|56|2|1
19|56|3|8
19|56|4|7
19|56|5|1
19|56|8|2
19|56|9|2
19|56|11|5
19|56|12|1
19|56|13|1
19|57|1|2
19|57|2|1
19|57|5|21
19|57|10|1
19|57|11|1
19|58|3|2
19|59|8|1
19|59|12|1
19|60|1|2
19|61|1|2
19|61|2|5
19|61|3|2
19|61|4|3
19|62|1|1
19|62|2|1
19|62|5|5
19|62|6|2
19|62|7|3
19|62|8|11
19|62|9|1
19|62|11|2
19|62|12|1
19|63|1|6
19|63|2|4
19|63|5|3
19|63|7|1
19|63|8|5
19|64|2|1
19|65|4|2
19|65|5|1
19|65|7|2
19|66|12|1
19|66|18|3
19|67|1|1
19|68|4|1
19|68|18|1
19|68|28|1
19|68|35|1
19|69|4|1
19|69|6|1
19|69|9|2
19|69|21|2
19|69|23|1
19|69|25|1
19|69|30|1
19|69|32|2
19|69|36|1
19|71|3|1
19|71|5|1
19|71|6|3
19|71|15|1
19|71|17|2
19|71|18|3
19|71|20|1
19|71|21|1
19|72|10|1
19|72|18|1
19|72|19|2
19|73|1|3
19|73|23|2
19|73|24|5
19|73|25|3
19|73|26|11
19|73|28|3
19|74|9|1
19|75|7|1
19|77|1|1
19|77|2|1
19|77|6|1
19|77|14|1
19|78|1|1
19|78|2|1
19|78|3|2
19|78|4|2
19|78|6|1
19|78|8|3
19|78|15|1
19|78|16|2
19|78|20|1
19|78|37|1
19|78|38|1
19|78|52|1
19|78|69|1
19|79|8|1
19|79|9|1
19|79|13|1
19|80|1|1
19|80|8|1
19|80|19|2
19|81|7|1
19|81|9|1
19|81|10|1
19|81|11|2
19|81|12|4
19|81|13|1
19|82|1|1
19|82|3|1
19|82|4|1
19|82|6|3
19|82|7|1
19|83|18|1
19|84|1|2
19|84|2|3
19|84|4|1
19|84|7|1
19|84|10|6
19|84|11|22
19|84|12|5
19|85|1|1
19|85|2|1
19|85|6|1
19|85|7|1
19|85|8|1
19|85|9|1
19|85|12|2
19|85|13|1
19|86|3|1
19|86|5|3
19|86|8|1
19|86|9|1
19|86|10|1
19|86|12|2
19|86|15|5
19|86|16|1
19|88|13|1
19|89|5|1
19|89|8|1
19|89|9|6
19|89|11|3
19|89|12|1
19|89|13|1
19|89|14|1
19|89|27|3
19|89|34|5
19|89|35|2
19|89|37|1
19|90|1|3
19|90|2|5
19|90|4|1
19|90|12|6
19|90|17|1
19|91|1|30
19|91|2|9
19|91|3|3
19|91|4|9
19|91|5|9
19|91|9|4
19|91|10|1
19|91|11|6
19|91|12|3
19|91|13|2
19|91|14|9
19|91|15|6
19|91|16|3
19|92|1|2
19|92|2|3
19|92|4|1
19|92|5|9
19|92|10|2
19|92|12|2
19|92|13|1
19|92|14|3
19|92|15|2
19|93|1|1
19|93|3|1
19|93|4|1
19|93|5|1
19|94|12|4
19|94|13|1
19|94|17|1
19|95|1|1
19|95|6|3
19|95|7|2
19|95|8|1
19|95|9|1
19|95|11|1
19|96|5|1
19|96|7|1
19|96|8|2
19|96|10|1
19|96|11|1
19|96|13|2
19|97|11|2
19|98|1|1
19|98|2|1
19|98|3|1
19|98|4|1
19|99|4|1
19|100|1|3
19|100|2|2
19|100|3|7
19|100|4|9
19|100|5|2
19|101|2|3
19|101|3|2
19|102|3|1
19|102|13|3
19|102|17|1
19|102|20|1
19|102|25|3
19|102|26|2
19|102|27|1
19|102|28|1
19|103|1|3
19|103|2|2
19|103|3|9
19|103|5|2
19|103|7|1
19|103|8|2
19|103|9|1
19|103|10|1
19|103|11|2
19|103|12|2
19|103|13|1
19|103|14|1
19|103|15|1
19|103|17|4
19|104|4|1
19|104|5|1
19|104|24|3
19|104|27|2
19|104|28|1
19|104|30|2
19|104|34|2
19|105|1|1
19|105|3|3
19|105|4|4
19|105|16|1
19|105|17|1
19|105|41|1
19|105|43|1
19|106|1|1
19|106|3|1
19|106|13|1
19|106|23|1
19|106|35|1
19|106|45|1
19|106|47|1
19|107|1|1
19|107|2|2
19|107|9|2
19|107|16|1
19|107|20|3
19|107|28|1
19|107|35|1
19|107|38|1
19|108|4|2
19|108|5|1
19|109|3|1
19|109|7|1
19|109|31|1
19|110|1|25
19|110|4|2
19|110|7|1
19|111|2|2
19|111|7|1
19|111|9|1
19|111|10|6
19|112|1|8
19|112|2|1
19|112|3|1
19|112|4|3
19|112|5|1
19|112|6|2
19|112|7|2
19|112|9|2
19|113|2|1
19|113|4|2
19|113|5|1
19|113|6|2
19|113|7|1
19|113|8|1
19|115|3|2
19|115|5|1
19|115|8|1
19|115|9|2
19|115|11|2
19|115|12|1
19|115|14|1
19|115|15|4
19|115|16|1
19|116|1|3
19|116|4|1
19|116|6|1
19|116|7|1
19|116|9|1
19|116|10|1
19|116|12|3
19|116|16|1
19|116|17|1
19|116|19|1
19|117|1|1
19|118|5|1
19|118|6|9
19|118|8|8
19|118|9|2
19|118|14|1
19|118|17|2
19|118|21|1
19|118|22|11
19|118|23|1
19|118|24|2
19|118|26|1
19|118|28|1
19|119|1|23
19|119|2|5
19|119|5|13
19|119|6|1
19|119|9|31
19|119|10|6
19|119|11|15
19|119|12|1
19|119|15|2
19|119|16|2
19|119|18|2
19|119|28|1
19|119|32|1
19|119|34|2
19|119|35|1
19|119|36|4
19|119|37|3
19|119|42|1
19|119|43|1
19|119|44|1
19|119|45|1
19|119|47|1
19|119|48|1
19|119|50|2
19|119|63|1
19|119|67|1
19|119|71|7
19|119|72|2
19|119|73|2
19|119|80|1
19|119|81|2
19|119|89|2
19|119|90|1
19|119|92|1
19|119|93|1
19|119|97|7
19|119|99|2
19|119|101|1
19|119|103|4
19|119|104|1
19|119|105|10
19|119|106|1
19|119|108|1
19|119|111|2
19|119|112|1
19|119|114|7
19|119|115|1
19|119|116|1
19|119|117|1
19|119|127|1
19|119|128|2
19|119|130|11
19|119|131|2
19|119|133|4
19|119|139|1
19|119|145|1
19|119|147|1
19|119|151|1
19|119|159|1
19|119|160|1
19|119|173|1
19|119|174|1
19|119|176|2
19|120|1|2
19|120|2|2
19|120|3|2
19|120|6|1
19|121|1|3
19|121|2|8
19|121|3|4
19|121|5|4
19|121|7|6
19|121|8|3
19|123|1|2
19|123|2|3
19|124|7|1
19|124|8|3
19|125|1|3
19|126|1|1
19|126|2|1
19|126|3|1
19|126|5|1
19|126|6|1
19|127|1|14
19|127|2|1
19|127|3|2
19|128|1|2
19|128|2|2
19|128|3|1
19|128|6|1
19|130|5|5
19|130|6|1
19|131|2|1
19|132|7|1
19|132|9|2
19|132|18|1
19|133|1|17
19|134|3|1
19|135|6|1
19|135|16|1
19|135|18|1
19|136|1|1
19|136|5|1
19|137|9|1
19|138|2|2
19|138|3|4
19|138|6|4
19|138|7|7
19|138|8|7
19|139|1|12
19|139|2|4
19|139|6|1
19|139|9|1
19|139|10|2
19|139|13|9
19|139|14|7
19|139|16|2
19|139|17|1
19|139|21|1
19|139|22|1
19|139|23|9
19|139|24|2
19|140|3|1
19|140|8|1
19|141|2|1
19|141|3|3
19|141|4|1
19|141|5|1
19|141|8|1
19|141|9|1
19|141|10|1
19|142|2|1
19|142|4|1
19|142|5|5
19|143|2|1
19|143|6|3
19|143|7|1
19|143|8|9
19|143|10|6
19|144|1|3
19|144|2|2
19|144|3|1
19|144|8|1
19|144|11|1
19|144|15|2
19|145|1|1
19|145|2|1
19|145|3|2
19|145|4|1
19|145|7|1
19|145|8|2
19|145|9|2
19|145|14|4
19|145|15|2
19|145|16|1
19|145|17|1
19|145|18|21
19|145|19|12
19|145|20|4
19|145|21|1
19|146|1|1
19|146|2|2
19|146|3|3
19|146|4|1
19|146|5|4
19|146|6|2
19|146|7|1
19|146|8|2
19|146|9|2
19|147|3|10
19|147|5|1
19|147|6|1
19|147|9|1
19|147|10|1
19|147|11|4
19|147|12|1
19|147|13|6
19|147|15|1
19|147|19|1
19|148|1|1
19|148|4|1
19|148|5|1
19|148|13|1
19|148|14|1
19|149|4|4
19|149|6|1
19|150|6|1
20|1|1|1
20|1|4|2
20|1|5|2
20|1|7|8
20|1|8|2
20|1|10|2
20|1|15|1
20|1|19|1
20|1|22|1
20|1|23|2
20|1|31|1
20|2|1|6
20|2|2|1
20|2|3|1
20|2|5|4
20|2|6|6
20|2|7|5
20|2|8|1
20|2|9|1
20|2|10|1
20|2|11|1
20|2|12|1
20|3|1|10
20|3|2|1
20|3|3|4
20|3|4|3
20|3|5|34
20|3|6|23
20|3|7|6
20|3|9|7
20|3|10|6
20|3|11|3
20|3|12|3
20|3|13|1
20|3|16|1
20|3|18|1
20|3|19|1
20|3|21|2
20|3|23|2
20|3|24|3
20|3|25|1
20|3|26|1
20|3|27|3
20|3|31|1
20|3|34|3
20|4|1|3
20|4|4|2
20|4|5|1
20|4|7|3
20|4|10|1
20|4|13|2
20|4|14|1
20|4|15|1
20|4|17|1
20|4|18|11
20|4|19|1
20|4|20|7
20|4|23|23
20|4|26|1
20|4|27|1
20|5|1|1
20|5|15|2
20|5|21|2
20|5|23|2
20|6|14|1
20|6|15|1
20|6|16|1
20|6|17|2
20|6|19|1
20|6|20|3
20|6|21|1
20|6|22|1
20|6|23|3
20|6|25|1
20|6|35|1
20|7|1|2
20|7|3|8
20|8|10|1
20|8|11|1
20|8|13|2
20|8|14|1
20|8|15|1
20|8|16|1
20|8|17|5
20|8|20|1
20|8|22|2
20|8|30|1
20|8|31|1
20|8|34|1
20|8|36|1
20|9|6|3
20|9|7|1
20|9|8|1
20|9|9|1
20|9|10|4
20|9|12|1
20|10|1|1
20|10|7|1
20|10|8|1
20|10|9|2
20|10|11|1
20|10|12|3
20|10|19|3
20|10|20|1
20|10|21|2
20|10|22|11
20|10|24|1
20|10|31|2
20|10|32|1
20|11|1|1
20|11|2|2
20|11|16|1
20|11|18|1
20|11|20|1
20|11|22|1
20|11|24|2
20|11|25|2
20|11|30|4
20|11|31|1
20|12|1|1
20|12|4|2
20|12|11|1
20|12|13|2
20|12|15|1
20|12|16|1
20|12|18|1
20|12|21|1
20|12|25|4
20|13|2|1
20|13|3|9
20|13|8|1
20|13|12|2
20|13|15|1
20|13|19|1
20|13|20|9
20|13|22|7
20|13|24|7
20|14|1|6
20|14|12|6
20|14|16|1
20|14|17|1
20|14|21|1
20|14|26|1
20|14|29|7
20|14|31|1
20|15|1|4
20|15|2|1
20|15|3|8
20|15|4|1
20|15|7|1
20|15|8|3
20|15|9|1
20|15|10|1
20|15|13|2
20|15|16|1
20|15|17|1
20|15|18|4
20|15|23|1
20|15|26|1
20|15|29|8
20|15|31|2
20|15|33|2
20|16|1|7
20|16|2|3
20|16|3|11
20|16|4|4
20|16|6|2
20|16|7|1
20|16|9|10
20|16|11|1
20|16|16|2
20|16|18|3
20|16|19|1
20|16|20|1
20|16|24|1
20|16|25|3
20|16|27|1
20|16|32|5
20|17|1|1
20|17|3|2
20|17|9|1
20|17|13|1
20|17|15|1
20|17|17|1
20|17|22|5
20|17|27|2
20|17|28|1
20|18|2|1
20|18|4|2
20|18|7|2
20|18|10|13
20|18|12|2
20|18|13|3
20|18|14|1
20|18|17|1
20|18|21|23
20|18|22|7
20|18|24|3
20|19|2|1
20|19|11|4
20|19|14|2
20|19|17|9
20|19|18|2
20|19|21|14
20|19|29|1
20|20|1|1
20|20|9|1
20|20|22|16
20|20|24|3
20|20|27|2
20|21|1|3
20|21|2|9
20|21|3|4
20|21|9|1
20|21|13|1
20|21|19|1
20|21|21|2
20|21|23|2
20|21|30|5
20|21|31|2
20|22|1|1
20|22|3|2
20|22|4|9
20|22|5|1
20|22|6|10
20|22|7|1
20|22|9|2
20|22|11|1
20|22|15|1
20|22|19|1
20|23|4|2
20|23|5|1
20|23|7|5
20|23|9|1
20|23|13|1
20|23|14|1
20|23|17|2
20|23|19|1
20|23|22|1
20|23|26|1
20|24|1|1
20|24|3|1
20|24|4|1
20|24|10|2
20|24|12|1
20|24|16|7
20|24|17|1
20|24|19|1
20|24|27|1
20|24|29|2
20|25|2|1
20|25|6|1
20|25|7|1
20|25|11|2
20|25|12|1
20|25|15|1
20|25|21|3
20|25|22|2
20|25|28|1
20|26|2|1
20|26|11|2
20|26|12|2
20|26|25|2
20|27|1|5
20|27|5|1
20|27|6|1
20|27|9|2
20|27|12|1
20|27|17|9
20|28|1|22
20|28|8|2
20|28|9|8
20|28|13|8
20|28|18|2
20|28|19|1
20|28|23|1
20|28|26|3
20|28|27|2
20|29|1|1
20|29|11|2
20|29|15|2
20|29|17|1
20|29|18|1
20|29|20|1
20|29|22|2
20|29|23|33
20|29|25|3
20|30|4|1
20|30|5|4
20|30|6|1
20|30|8|1
20|30|12|3
20|31|8|2
20|31|10|5
20|31|11|2
20|31|30|5
20|31|31|3
21|1|4|1
21|1|8|1
21|1|18|1
21|2|22|1
21|2|23|1
21|2|24|1
21|2|26|9
21|3|1|3
21|3|11|10
21|3|14|1
21|3|15|1
21|3|17|1
21|3|22|1
21|4|6|1
21|4|9|6
21|4|12|2
21|5|1|3
21|5|2|1
21|5|3|2
21|5|7|2
21|5|13|1
21|5|15|1
21|7|1|1
21|7|8|1
21|7|9|4
21|7|12|1
21|7|13|1
21|7|14|1
21|7|16|1
21|7|20|3
21|7|29|1
21|8|12|1
21|8|17|1
21|9|1|2
21|9|3|1
21|9|8|1
21|9|9|1
21|9|10|6
21|9|11|1
21|10|12|3
21|10|14|1
21|11|1|1
21|11|5|1
21|11|6|23
21|11|8|1
21|12|1|6
21|12|7|3
21|12|12|1
21|12|13|12
21|12|14|5
22|1|15|1
22|2|3|3
22|2|16|2
22|3|1|1
22|3|2|1
22|3|4|1
22|4|1|1
22|5|1|2
22|5|2|1
22|5|4|1
22|5|6|1
22|6|3|1
22|8|5|1
23|1|2|2
23|1|8|3
23|1|11|4
23|1|15|3
23|1|16|4
23|1|17|2
23|1|18|11
23|1|19|7
23|2|1|1
23|2|2|3
23|2|3|4
23|2|4|1
23|2|11|4
23|2|12|2
23|2|17|2
23|2|22|1
23|3|10|6
23|3|11|2
23|4|2|2
23|4|3|1
23|4|4|1
23|4|5|1
23|4|6|1
23|5|13|1
23|5|16|1
23|5|20|4
23|5|21|1
23|5|25|1
23|5|26|1
23|6|1|4
23|6|2|1
23|6|3|5
23|6|6|1
23|6|7|1
23|6|8|4
23|6|9|12
23|6|10|8
23|6|13|1
23|7|5|1
23|7|7|1
23|7|9|1
23|7|14|11
23|8|7|1
23|8|8|1
23|8|9|1
23|8|10|5
23|8|12|1
23|8|13|1
23|8|14|3
23|8|15|1
23|8|17|1
23|8|20|1
23|9|1|1
23|9|2|7
23|9|4|1
23|9|6|19
23|9|7|6
23|10|27|3
23|11|1|2
23|11|2|6
23|11|3|2
23|11|4|1
23|11|5|2
23|11|6|2
23|11|8|1
23|11|9|1
23|11|10|2
23|11|11|1
23|11|16|1
23|12|1|1
23|12|2|16
23|12|3|3
23|12|4|3
23|12|6|2
23|13|2|1
23|13|10|2
23|13|16|1
23|14|2|1
23|14|12|1
23|14|24|1
23|14|25|1
23|14|26|2
23|14|27|2
23|19|3|1
23|19|11|1
23|19|14|1
23|22|22|2
23|25|1|3
23|25|4|2
23|25|6|2
23|25|8|4
23|25|9|4
23|26|2|1
23|26|3|28
23|26|4|8
23|26|12|2
23|26|19|3
23|26|20|3
23|27|2|1
23|27|3|1
23|27|13|1
23|28|11|1
23|28|12|1
23|28|16|19
23|28|29|1
23|29|8|1
23|29|13|11
23|29|14|1
23|29|16|1
23|29|18|2
23|29|19|2
23|29|22|1
23|29|23|1
23|29|24|1
23|30|1|1
23|30|8|2
23|30|15|3
23|30|18|6
23|30|20|1
23|30|21|22
23|30|26|2
23|31|1|3
23|31|9|1
23|32|2|3
23|32|3|2
23|32|4|1
23|32|15|3
23|32|17|2
23|33|2|1
23|33|16|1
23|33|22|1
23|34|4|2
23|34|16|2
23|35|3|4
23|35|4|7
23|35|5|10
23|35|6|5
23|35|7|1
23|35|8|7
23|35|9|2
23|35|10|4
23|37|14|1
23|37|16|2
23|37|20|2
23|37|35|1
23|38|3|1
23|38|17|1
23|40|1|6
23|40|3|22
23|40|4|2
23|40|5|3
23|40|6|1
23|40|8|5
23|40|9|1
23|40|10|1
23|40|11|8
23|40|18|3
23|40|21|1
23|40|26|3
23|40|28|16
23|40|29|12
23|40|30|1
23|40|31|51
23|41|4|3
23|41|8|1
23|41|10|68
23|41|11|1
23|41|12|1
23|41|13|5
23|41|14|8
23|41|15|1
23|41|17|3
23|41|18|2
23|41|21|2
23|42|1|10
23|42|5|3
23|42|6|4
23|42|7|6
23|42|8|2
23|42|9|2
23|42|16|2
23|42|18|1
23|42|20|1
23|42|21|1
23|43|1|14
23|43|2|21
23|43|5|6
23|43|6|1
23|43|7|2
23|43|8|1
23|43|10|4
23|43|11|2
23|43|13|1
23|43|14|1
23|43|15|1
23|43|16|1
23|43|18|2
23|43|19|20
23|43|20|2
23|43|21|2
23|43|24|1
23|43|25|32
23|43|26|1
23|44|2|26
23|44|3|40
23|44|4|2
23|44|5|2
23|44|6|37
23|44|7|1
23|44|8|2
23|44|18|10
23|44|21|2
23|44|22|5
23|44|23|2
23|44|24|6
23|44|25|2
23|44|26|1
23|44|28|1
23|45|2|3
23|45|3|2
23|45|4|1
23|45|5|2
23|45|6|1
23|45|7|7
23|45|9|1
23|45|11|1
23|45|12|2
23|45|17|39
23|45|18|2
23|45|19|4
23|45|21|2
23|45|22|6
23|45|23|2
23|45|24|3
23|45|25|6
23|46|3|1
23|46|4|4
23|46|5|1
23|46|7|1
23|46|8|1
23|46|9|2
23|46|10|11
23|46|11|1
23|48|6|2
23|48|8|1
23|48|10|3
23|48|11|1
23|48|12|3
23|48|13|1
23|48|16|2
23|48|17|34
23|48|18|2
23|48|21|3
23|48|22|2
23|49|1|2
23|49|2|2
23|49|5|1
23|49|6|14
23|49|7|3
23|49|8|3
23|49|9|3
23|49|10|5
23|49|11|1
23|49|12|1
23|49|15|1
23|49|23|4
23|49|24|2
23|49|25|32
23|50|1|1
23|50|2|1
23|50|4|10
23|50|6|1
23|50|7|5
23|50|8|2
23|50|9|2
23|50|10|1
23|51|1|2
23|51|3|1
23|51|6|11
23|51|7|2
23|51|8|1
23|51|11|4
23|51|12|5
23|51|13|2
23|51|16|3
23|51|17|1
23|52|1|2
23|52|2|2
23|52|5|1
23|52|7|5
23|52|9|1
23|52|10|1
23|52|11|1
23|52|12|1
23|52|13|3
23|52|14|1
23|52|15|2
23|53|1|4
23|53|2|6
23|53|3|8
23|53|4|9
23|53|5|14
23|53|6|7
23|53|7|3
23|53|8|1
23|53|9|3
23|53|10|6
23|53|12|5
23|54|1|1
23|54|4|1
23|54|5|4
23|54|7|1
23|54|8|3
23|54|9|2
23|54|10|3
23|54|13|6
23|54|15|2
23|54|17|21
23|55|1|15
23|55|2|2
23|55|3|6
23|55|6|25
23|55|7|46
23|55|8|8
23|55|9|5
23|55|10|2
23|55|11|19
23|55|12|5
23|56|2|1
23|56|5|1
23|56|6|1
23|56|7|6
23|56|8|1
23|56|10|1
23|56|11|2
23|57|14|2
23|57|15|13
23|57|18|2
23|57|19|2
23|57|21|1
23|58|3|1
23|58|5|1
23|58|6|2
23|58|7|3
23|58|8|22
23|58|9|2
23|58|10|2
23|58|11|8
23|58|12|2
23|58|13|8
23|58|14|3
23|59|1|2
23|59|2|6
23|59|7|1
23|59|8|1
23|59|13|1
23|59|15|1
23|59|16|1
23|59|17|2
23|59|20|4
23|59|21|37
23|60|1|23
23|60|2|1
23|60|3|4
23|60|6|2
23|60|9|1
23|60|14|1
23|60|16|1
23|60|19|8
23|60|20|4
23|60|21|3
23|60|22|1
23|61|1|52
23|61|2|2
23|61|3|11
23|61|4|1
23|61|6|1
23|61|7|1
23|61|9|1
23|61|10|10
23|62|2|1
23|62|4|1
23|62|5|1
23|62|6|1
23|62|10|3
23|62|11|5
23|63|2|1
23|63|3|2
23|63|9|1
23|63|10|3
23|63|14|1
23|63|19|1
23|64|4|3
23|64|6|1
23|64|8|4
23|65|1|1
23|65|9|1
23|65|10|1
23|65|17|6
23|65|18|1
23|65|19|1
23|65|23|1
23|65|24|11
23|65|25|1
23|66|1|16
23|66|2|8
23|66|5|1
23|66|19|3
23|66|20|1
23|66|22|1
24|1|5|16
24|1|6|1
24|1|7|2
24|1|8|5
24|1|9|14
24|1|10|3
24|1|12|2
24|1|18|1
24|1|19|5
24|2|2|1
24|2|5|1
24|2|13|4
24|2|21|1
24|3|12|2
24|3|13|1
24|3|15|7
24|3|19|1
24|4|1|1
24|4|3|2
24|4|4|3
24|4|14|2
24|4|22|1
24|4|23|11
24|5|1|1
24|5|14|2
24|5|21|3
24|5|25|1
24|6|14|1
24|6|16|8
24|7|11|3
24|7|22|1
24|7|23|2
24|7|24|2
24|8|9|1
24|8|22|1
24|9|3|1
24|9|4|1
24|9|6|1
24|9|8|1
24|9|23|8
24|9|24|8
24|10|6|1
24|10|7|2
24|10|11|1
24|10|12|2
24|10|14|4
24|10|21|1
24|10|23|6
24|11|4|1
24|11|7|1
24|11|19|1
24|11|20|2
24|12|3|1
24|13|15|1
24|13|27|1
24|14|9|1
24|15|1|2
24|15|16|16
24|15|17|1
24|15|19|1
24|15|20|1
24|16|12|1
24|16|17|2
24|17|5|9
24|17|7|15
24|17|8|12
24|17|9|17
24|17|10|13
24|17|13|9
24|17|14|1
24|17|18|1
24|17|21|1
24|17|27|1
24|18|4|3
24|18|6|2
24|18|9|1
24|18|10|1
24|18|15|1
24|20|2|1
24|20|4|1
24|20|9|4
24|20|11|12
24|20|12|2
24|22|3|1
24|22|15|1
24|22|16|2
24|22|29|1
24|23|1|5
24|23|3|8
24|23|4|3
24|23|5|5
24|23|6|3
24|23|8|1
24|23|24|1
24|23|29|2
24|23|40|1
24|24|5|1
24|24|6|1
24|24|7|7
24|25|29|1
24|26|13|1
24|27|5|1
24|29|10|2
24|29|11|51
24|29|12|16
24|29|13|21
24|29|14|5
24|30|3|3
24|30|16|1
24|30|17|5
24|30|18|33
24|30|22|3
24|31|1|2
24|31|3|6
24|31|4|1
24|31|10|1
24|31|12|1
24|31|13|1
24|31|14|2
24|31|15|1
24|31|22|1
24|31|23|1
24|31|25|1
24|31|28|1
24|31|31|16
24|31|33|26
24|31|34|8
24|31|35|1
24|31|36|1
24|31|38|1
24|31|40|1
24|32|17|39
24|32|19|2
24|32|21|1
24|32|27|7
24|32|37|2
24|32|38|4
24|32|39|5
24|32|40|4
24|32|41|2
24|33|3|33
24|33|6|4
24|33|7|1
24|33|8|1
24|33|9|1
24|33|11|1
24|33|14|1
24|33|16|1
24|34|8|1
24|42|10|1
24|46|27|1
24|49|6|1
24|49|39|1
24|50|17|1
24|50|19|1
24|50|20|1
24|50|33|1
24|50|34|2
24|51|9|1
24|51|12|1
24|51|15|1
24|51|35|1
24|51|36|1
24|51|40|1
25|2|19|1
25|3|21|1
25|3|22|11
25|3|23|10
25|3|24|2
25|3|25|7
25|3|26|8
25|3|27|1
25|3|37|4
25|3|38|1
25|3|40|2
25|3|41|2
25|4|2|1
25|4|20|1
26|1|1|1
26|1|10|1
26|1|24|1
26|1|28|1
26|2|6|1
26|2|9|1
26|2|10|1
26|3|1|2
26|3|3|2
26|3|8|1
26|3|9|1
26|3|10|1
26|3|18|10
26|3|19|1
26|3|20|1
26|3|27|1
26|4|13|1
26|4|14|1
26|5|2|1
26|5|12|1
26|7|20|1
26|7|22|1
26|9|4|3
26|10|14|1
26|11|16|1
26|11|17|1
26|11|19|15
26|11|20|6
26|12|2|1
26|12|25|2
26|12|28|1
26|13|5|1
26|13|10|1
26|14|14|1
26|14|20|1
26|16|4|1
26|16|8|1
26|16|38|1
26|16|40|1
26|17|8|1
26|18|4|2
26|18|20|4
26|18|21|1
26|18|23|3
26|18|24|1
26|18|27|3
26|18|29|1
26|18|30|1
26|18|31|6
26|18|32|3
26|19|10|1
26|20|5|1
26|20|8|1
26|20|9|2
26|20|12|1
26|20|14|1
26|20|18|1
26|20|22|1
26|20|39|1
26|20|41|1
26|22|30|7
26|28|25|1
26|28|26|1
26|31|4|1
26|31|10|1
26|33|6|1
26|33|8|1
26|33|10|1
26|33|11|4
26|33|14|1
26|33|16|1
26|33|31|4
26|33|33|1
26|34|2|4
26|34|4|1
26|34|6|1
26|34|10|1
26|34|11|3
26|34|12|1
26|34|13|28
26|34|14|1
26|34|16|4
26|34|23|4
26|34|24|2
26|34|26|1
26|34|31|1
26|36|1|3
26|36|8|1
26|36|20|1
26|36|22|1
26|36|23|2
26|36|24|1
26|36|25|17
26|36|26|20
26|36|27|16
26|36|28|2
26|36|32|1
26|36|37|1
26|37|4|5
26|37|11|1
26|37|12|1
26|37|14|2
26|37|21|1
26|37|22|1
26|37|25|1
26|37|26|2
26|37|27|5
26|38|8|1
26|38|23|1
26|39|1|1
26|39|22|1
26|39|23|1
26|39|24|1
26|39|25|1
26|39|27|1
26|39|29|4
26|43|2|1
26|43|7|1
26|43|9|1
26|43|24|1
26|44|28|1
26|47|1|1
26|47|12|3
26|48|35|1
27|1|1|4
27|1|8|5
27|1|17|4
27|2|21|2
27|2|22|1
27|2|44|3
27|3|16|3
27|3|17|4
27|3|18|2
27|3|25|1
27|3|27|1
27|4|30|1
27|4|34|1
27|4|35|2
27|4|37|1
27|5|20|1
27|5|21|1
27|6|10|3
27|6|11|1
27|6|20|2
27|6|22|3
27|6|26|1
27|7|9|1
27|7|10|2
27|7|13|10
27|7|14|4
27|7|27|3
27|9|3|4
27|9|4|3
27|9|20|4
27|9|21|1
27|9|22|2
27|9|24|1
27|9|27|2
27|10|6|1
27|10|12|1
27|10|14|1
27|10|16|1
27|10|19|2
27|10|21|1
27|11|32|1
27|11|33|1
27|12|1|2
27|12|2|6
27|12|3|4
27|12|4|1
27|12|9|1
27|12|10|1
27|12|11|1
28|1|7|2
28|1|9|2
28|1|10|6
28|2|8|1
28|2|14|1
28|2|19|1
28|2|20|1
28|2|23|13
28|3|5|1
28|4|1|1
28|4|6|5
28|6|1|6
28|6|2|5
28|6|3|3
28|6|6|9
28|6|11|1
28|7|1|1
28|8|7|1
28|10|12|4
28|11|1|1
28|11|4|1
28|11|9|1
28|12|6|1
28|13|4|1
28|13|14|2
28|14|2|1
28|14|4|1
28|14|5|1
28|14|6|2
28|14|8|1
28|14|9|3
29|1|4|1
29|1|7|1
29|2|2|1
29|2|12|10
29|2|13|4
29|2|23|7
29|2|25|3
29|2|26|2
29|2|27|3
29|2|28|17
29|2|32|5
29|3|1|1
29|3|15|1
29|3|16|1
29|3|18|2
30|3|3|2
30|3|6|1
30|3|7|10
30|4|13|2
30|5|4|2
30|5|6|2
30|5|8|1
30|5|13|1
30|5|21|2
30|5|24|2
30|8|9|1
30|8|11|5
30|8|13|1
30|9|8|1
30|9|11|1
30|9|12|1
30|9|14|2
30|9|15|2
31|1|3|1
31|1|12|1
32|1|1|3
32|1|17|1
32|2|2|4
32|3|10|1
32|4|2|1
33|1|2|2
33|1|4|1
33|2|7|1
33|3|4|2
33|3|8|2
33|4|1|4
33|4|2|2
33|4|3|1
33|4|6|1
33|4|7|1
33|4|12|1
33|4|13|1
33|5|2|3
33|5|4|3
33|5|5|1
33|5|7|1
33|6|1|8
33|6|6|4
33|6|8|30
33|7|5|3
33|7|6|1
33|7|7|7
33|7|8|5
33|7|10|1
33|7|14|3
33|7|15|2
33|7|18|8
33|7|19|5
33|7|20|1
34|1|2|1
34|1|5|1
34|1|7|6
34|1|9|2
34|1|15|2
35|1|5|1
35|2|2|1
35|2|3|18
35|2|4|4
35|2|11|1
35|2|14|3
35|2|20|3
35|3|2|1
35|3|3|1
35|3|18|1
35|3|19|2
36|1|7|1
36|3|5|1
36|3|11|1
36|3|14|3
36|3|15|3
36|3|16|1
36|3|17|16
36|3|19|8
36|3|20|3
37|1|2|1
37|1|6|1
37|1|9|1
37|1|11|2
37|2|2|1
37|2|4|2
37|2|5|1
37|2|7|1
37|2|8|1
37|2|9|1
37|2|17|1
37|2|19|1
38|1|3|1
38|1|6|1
38|1|16|1
38|2|10|2
38|2|11|1
38|2|13|2
38|3|3|1
38|3|5|1
38|3|7|1
38|3|9|1
38|4|2|1
38|4|6|32
38|4|7|2
38|4|10|5
38|7|11|1
38|7|12|2
38|7|13|1
38|8|6|2
38|8|8|2
38|8|9|1
38|8|11|1
38|8|12|1
38|8|13|1
38|8|14|1
38|8|15|1
38|9|9|9
38|9|10|1
38|9|11|3
38|9|12|3
38|9|13|1
38|9|15|1
38|9|17|3
38|10|6|2
38|10|12|5
38|11|12|1
38|11|15|1
38|11|17|1
38|12|1|1
38|12|5|1
38|12|6|1
38|12|10|4
38|13|7|2
38|13|9|20
38|14|3|1
38|14|8|2
38|14|9|2
38|14|10|1
38|14|11|1
38|14|12|1
38|14|20|1
38|14|21|1
39|1|2|1
39|1|3|1
39|1|6|8
39|1|11|1
39|1|13|1
39|1|14|1
39|2|10|2
39|2|11|3
39|3|1|4
39|3|2|1
39|3|3|1
39|3|6|11
39|3|7|1
39|3|8|2
39|3|10|11
39|4|1|1
39|4|2|7
39|4|4|1
39|4|5|3
39|4|6|2
40|1|1|3
40|1|20|1
40|1|21|7
40|1|23|10
40|2|1|1
40|2|2|2
40|2|6|2
40|2|11|3
40|2|15|1
40|2|18|1
40|2|23|1
40|3|1|1
40|3|2|8
40|3|3|2
40|3|6|1
40|3|8|1
40|3|10|1
40|3|11|2
40|3|12|2
40|3|16|3
40|3|17|7
40|4|1|5
40|4|4|16
40|4|6|2
40|4|7|2
40|4|10|5
40|4|11|1
40|4|15|1
40|4|16|4
40|4|17|3
40|4|19|2
40|5|3|20
40|5|4|9
40|5|5|7
40|5|6|22
40|5|7|8
40|5|8|18
40|5|9|8
40|5|10|12
40|5|11|17
40|5|12|7
40|5|13|10
40|5|14|7
40|5|15|1
40|5|16|17
40|5|17|9
40|5|18|6
40|5|19|1
40|5|21|2
40|5|22|8
40|5|23|1
40|5|24|1
40|5|25|2
40|5|28|5
40|5|29|3
40|5|32|4
40|5|33|2
40|5|34|2
40|5|35|1
40|5|37|2
40|5|39|5
40|5|43|1
40|5|44|15
40|5|45|3
40|5|48|8
40|6|1|4
40|6|2|1
40|6|5|2
40|6|6|7
40|6|7|3
40|6|8|4
40|6|9|8
40|6|10|9
40|6|11|6
40|6|12|5
40|6|13|8
40|6|14|4
40|6|15|6
40|6|16|2
40|6|19|12
40|6|20|2
40|6|21|5
40|6|22|2
40|6|24|11
40|6|25|16
40|6|26|13
40|6|27|4
40|6|28|2
40|6|29|1
40|6|31|4
40|6|32|1
40|6|33|61
40|6|34|10
40|7|1|14
40|7|2|4
40|7|3|5
40|7|5|2
40|7|6|8
40|7|7|50
40|7|8|6
40|7|11|12
40|7|12|9
40|7|13|16
40|7|14|10
40|7|15|5
40|7|16|3
40|7|19|1
40|7|21|12
40|7|22|2
40|7|23|4
40|7|24|25
40|7|25|2
40|7|26|2
40|7|27|2
40|8|4|2
40|8|5|2
40|8|8|1
40|8|16|1
40|8|17|2
40|8|21|1
40|8|22|1
40|8|24|1
40|8|26|3
40|8|27|1
40|9|3|1
40|9|4|1
40|9|5|14
40|9|12|2
40|9|13|29
40|9|16|1
40|9|17|1
40|9|22|2
40|9|27|3
40|9|36|2
40|9|37|8
40|9|38|2
40|10|1|6
40|10|5|1
40|10|6|2
40|10|8|3
40|10|14|1
40|10|15|1
40|10|16|3
40|10|17|1
40|10|19|6
40|10|20|2
40|10|22|14
40|10|25|1
40|10|26|1
40|10|28|5
40|10|29|1
40|10|31|1
40|10|32|2
40|10|33|2
40|10|34|2
40|10|36|1
40|10|37|3
40|10|38|5
40|10|39|10
40|10|40|1
40|10|42|2
40|11|5|5
40|11|10|2
40|11|12|4
40|11|14|1
40|11|15|1
40|11|25|7
40|11|27|33
40|11|28|27
40|11|29|14
40|11|30|4
40|12|1|1
40|12|3|2
40|12|7|3
40|12|18|1
40|12|28|1
40|12|30|2
40|12|31|1
40|12|33|4
40|12|34|4
40|12|35|3
40|12|36|2
40|12|37|5
40|12|40|1
40|12|43|1
40|12|48|1
40|12|50|5
40|13|6|1
40|13|8|1
40|13|9|1
40|13|11|4
40|13|14|4
40|13|15|5
40|13|16|2
40|13|17|1
40|13|20|1
40|13|21|1
40|13|22|2
40|13|23|1
40|13|30|1
40|13|31|1
40|13|35|10
40|13|39|1
40|13|43|2
40|13|44|5
40|13|46|1
40|13|52|1
40|13|57|1
40|14|23|1
40|14|29|1
40|14|33|1
40|15|7|1
40|15|8|4
40|15|9|3
40|15|11|3
40|15|13|2
40|15|14|1
40|15|18|3
40|15|19|6
40|15|20|1
40|15|22|1
40|15|24|3
40|16|3|1
40|16|16|11
40|16|17|4
40|16|18|6
40|16|19|2
40|16|21|1
40|16|22|1
40|16|23|2
40|16|24|14
40|16|25|5
40|16|26|8
40|16|27|7
40|17|5|6
40|17|20|9
40|17|22|1
40|18|1|1
40|18|3|10
40|18|4|1
40|18|5|1
40|18|7|1
40|18|10|2
40|18|12|3
40|18|13|1
40|18|15|7
40|18|17|1
40|18|18|3
40|18|19|13
40|18|20|3
40|18|21|2
40|18|33|1
40|18|35|1
40|19|3|1
40|19|4|2
40|19|5|2
40|19|9|1
40|19|13|1
40|19|14|1
40|19|15|1
40|19|16|1
40|19|18|1
40|19|19|2
40|19|21|1
40|19|26|11
40|19|28|1
40|19|29|23
40|19|30|1
40|20|16|2
40|20|22|1
40|20|23|1
40|20|25|2
40|20|26|4
40|20|28|11
40|20|30|1
40|20|31|1
40|21|4|1
40|21|5|3
40|21|7|1
40|21|9|2
40|21|13|4
40|21|16|2
40|21|21|6
40|21|22|16
40|21|28|2
40|21|31|1
40|21|32|2
40|21|42|4
40|22|2|2
40|22|14|6
40|22|16|1
40|22|29|1
40|22|31|1
40|22|32|2
40|22|34|1
40|22|37|12
40|22|39|9
40|22|40|4
40|22|42|1
40|22|43|1
40|22|44|1
40|22|46|1
40|23|4|2
40|23|5|1
40|23|8|1
40|23|12|7
40|23|13|2
40|23|15|1
40|23|21|1
40|23|22|1
40|23|23|3
40|23|25|2
40|23|26|1
40|23|27|1
40|23|28|2
40|24|4|2
40|24|5|1
40|24|6|2
40|24|9|8
40|24|11|1
40|24|12|4
40|24|13|4
40|24|14|5
40|24|15|3
40|24|16|1
40|24|18|1
40|24|21|3
40|24|24|4
40|24|28|1
40|24|29|3
40|24|30|3
40|24|31|3
40|24|33|1
40|24|35|25
40|24|36|4
40|24|42|4
40|24|44|2
40|24|45|1
40|25|1|4
40|25|4|1
40|25|10|1
40|25|11|1
40|25|12|1
40|25|13|2
40|25|21|15
40|25|23|2
40|25|31|4
40|25|34|9
40|25|35|1
40|25|40|8
40|25|41|3
40|25|46|5
40|26|15|1
40|26|18|1
40|26|28|5
40|26|29|2
40|26|31|2
40|26|39|2
40|26|41|4
40|26|42|1
40|26|52|1
40|26|56|1
40|26|63|2
40|26|64|2
40|26|67|2
40|27|34|1
40|27|35|1
40|27|37|1
40|27|45|1
40|27|46|3
40|27|51|1
40|27|52|1
40|27|54|1
40|27|57|1
40|27|60|1
40|28|18|21
40|28|19|31
40|28|20|9
41|1|2|2
41|1|5|1
41|1|10|1
41|1|11|1
41|1|12|1
41|1|15|5
41|1|17|1
41|1|18|1
41|2|7|1
41|2|9|1
41|2|10|1
41|2|11|1
41|2|12|1
41|2|17|4
41|3|1|2
41|3|13|1
41|3|15|1
41|3|18|1
41|4|12|8
41|4|19|1
41|4|21|1
41|4|22|1
41|4|24|3
41|4|26|1
41|4|29|1
41|4|31|1
41|4|38|1
41|4|41|1
41|5|1|2
41|5|23|1
41|5|34|3
41|5|36|1
41|6|7|1
41|6|13|1
41|6|34|1
41|7|2|1
41|7|6|14
41|7|13|1
41|7|15|2
41|7|21|3
41|7|22|2
41|7|23|1
41|7|37|1
41|8|18|19
41|8|33|1
41|8|34|7
41|8|35|3
41|8|36|7
41|8|37|1
41|8|38|4
41|9|7|1
41|9|23|9
41|9|35|1
41|9|37|2
41|9|38|1
41|9|40|2
41|9|41|1
41|9|43|1
41|9|48|1
41|9|49|1
41|9|50|2
41|10|6|2
41|10|12|1
41|10|13|2
41|10|14|1
41|10|15|1
41|10|17|2
41|10|21|1
41|10|27|8
41|10|29|2
41|10|30|2
41|10|43|3
41|10|44|1
41|10|45|5
41|10|52|1
41|11|17|4
41|11|22|5
41|11|23|14
41|11|24|20
41|11|25|6
41|12|6|1
41|12|10|2
41|12|11|1
41|12|24|1
41|12|29|5
41|12|30|4
41|12|31|9
41|12|32|1
41|12|33|6
41|12|34|2
41|12|35|1
41|12|36|1
41|12|37|1
41|13|7|1
41|13|8|1
41|13|9|1
41|13|11|1
41|13|13|4
41|13|14|1
41|13|19|1
41|13|24|1
41|13|25|1
41|13|31|1
41|13|32|2
41|13|33|3
41|13|37|2
41|14|27|1
41|14|34|1
41|14|37|1
41|14|38|6
41|14|61|1
41|14|62|3
41|15|33|1
41|15|34|2
41|15|37|1
41|15|38|1
41|15|41|1
41|16|15|6
41|16|16|49
41|16|17|10
41|16|18|15
41|16|19|1
42|1|2|1
42|1|3|1
42|1|6|3
42|1|13|1
42|1|16|1
42|1|17|5
42|1|30|1
42|1|31|2
42|1|32|2
42|1|33|9
42|1|35|2
42|1|37|13
42|1|41|1
42|1|45|3
42|1|46|2
42|1|50|2
42|1|52|1
42|1|70|1
42|1|74|1
42|1|75|1
42|1|76|3
42|1|77|2
42|1|78|4
42|1|79|6
42|2|10|1
42|2|11|3
42|2|14|2
42|2|23|1
42|2|25|1
42|2|32|4
42|2|34|2
42|2|40|1
42|2|49|1
42|2|52|3
42|3|2|1
42|3|4|1
42|3|5|2
42|3|6|1
42|3|11|1
42|3|21|1
42|3|22|10
42|4|1|1
42|4|2|1
42|4|4|2
42|4|8|3
42|4|10|2
42|4|11|1
42|4|12|1
42|4|13|2
42|4|18|19
42|4|19|1
42|4|24|1
42|5|4|1
42|5|5|2
42|5|23|1
42|5|25|1
42|5|31|2
42|5|32|4
42|6|3|2
42|6|6|1
42|6|11|1
42|6|20|1
42|6|21|1
42|6|22|6
42|6|23|3
42|6|26|1
42|6|27|4
42|6|28|2
42|6|30|1
42|6|31|2
42|6|34|1
42|6|35|8
42|6|36|3
42|6|37|3
42|6|38|10
42|6|41|2
42|6|42|1
42|6|43|2
42|6|44|1
42|6|45|20
42|6|46|3
42|6|47|4
42|6|48|2
42|6|49|1
42|7|1|1
42|7|10|1
42|7|20|1
42|7|22|4
42|7|23|1
42|7|47|1
42|7|50|12
42|8|10|1
42|8|11|2
42|8|12|1
42|8|14|2
42|8|15|3
42|8|16|1
42|8|17|5
42|8|21|2
42|8|26|1
42|8|35|1
42|8|39|1
42|8|48|2
42|8|50|1
42|9|1|1
42|9|6|1
42|9|23|17
42|9|25|2
42|9|26|12
42|9|27|1
42|9|34|2
42|9|35|2
42|9|49|2
42|9|50|1
42|9|56|1
42|9|62|7
42|10|1|1
42|10|2|5
42|10|3|1
42|10|16|1
42|10|17|2
42|10|18|3
42|10|19|16
42|10|20|2
42|10|22|3
42|10|23|1
42|10|24|1
42|10|25|2
42|10|27|17
42|10|37|1
42|10|41|1
42|10|42|1
42|11|1|1
42|11|2|2
42|11|3|2
42|11|4|3
42|11|8|1
42|11|9|51
42|11|10|4
42|11|11|2
42|11|13|10
42|11|23|1
42|11|27|1
42|11|28|31
42|11|29|1
42|11|30|1
42|11|34|1
42|11|36|1
42|11|39|1
42|11|42|2
42|11|44|1
42|11|46|1
42|12|2|1
42|12|3|1
42|12|4|3
42|12|5|3
42|12|6|1
42|12|7|1
42|12|8|2
42|12|9|1
42|12|10|1
42|12|11|1
42|12|12|3
42|12|15|7
42|12|17|1
42|12|19|1
42|12|20|3
42|12|21|1
42|12|22|6
42|12|24|1
42|12|25|1
42|12|26|1
42|12|29|2
42|12|30|5
42|12|31|4
42|12|32|8
42|12|33|3
42|12|34|1
42|12|35|6
42|12|36|2
42|12|37|1
42|12|40|1
42|12|42|1
42|12|44|1
42|12|47|1
42|12|48|2
42|12|49|1
42|12|53|1
42|12|58|1
42|12|59|1
42|13|6|1
42|13|9|1
42|13|23|3
42|13|24|6
42|13|25|3
42|13|27|2
42|13|30|1
42|13|34|1
42|14|7|1
42|14|10|2
42|14|11|7
42|14|12|1
42|14|14|1
42|14|23|1
42|14|26|11
42|14|27|4
42|14|28|1
42|14|33|1
42|14|34|1
42|14|35|1
42|15|3|1
42|15|4|4
42|15|6|1
42|15|7|9
42|15|10|3
42|15|17|1
42|15|23|1
42|15|24|1
42|15|32|3
42|16|9|1
42|16|10|5
42|16|11|2
42|16|12|1
42|16|13|2
42|16|15|6
42|16|16|1
42|16|17|2
42|16|18|1
42|16|23|1
42|17|1|1
42|17|3|2
42|17|4|2
42|17|6|3
42|17|21|2
42|17|31|1
42|17|32|1
42|17|33|2
42|17|37|1
42|18|1|17
42|18|7|4
42|18|8|5
42|18|9|2
42|18|11|2
42|18|12|1
42|18|13|1
42|18|14|6
42|18|16|1
42|18|17|2
42|18|18|1
42|18|27|7
42|18|29|2
42|18|30|3
42|18|42|1
42|19|8|1
42|19|9|1
42|19|10|21
42|19|14|1
42|19|17|1
42|19|37|1
42|19|40|1
42|19|41|1
42|19|46|1
42|20|17|2
42|20|18|1
42|20|42|1
42|20|43|1
42|21|14|2
42|21|15|9
42|21|16|1
42|21|17|3
42|21|18|1
42|21|19|1
42|21|24|1
42|21|25|2
42|21|26|1
42|21|27|1
42|21|33|2
42|21|34|2
42|21|36|6
42|22|19|2
42|22|20|1
42|22|25|1
42|22|27|2
42|22|29|2
42|22|30|1
42|22|31|2
42|22|32|4
42|22|35|1
42|22|42|4
42|22|43|2
42|22|46|1
42|23|33|1
42|23|34|13
42|23|43|19
42|23|46|6
42|23|51|1
42|24|26|1
42|24|27|3
42|24|44|3
42|24|45|2
42|24|46|4
42|24|47|7
42|24|48|2
42|24|49|3
43|1|1|44
43|1|2|4
43|1|3|9
43|1|4|13
43|1|5|6
43|1|9|6
43|1|10|1
43|1|11|4
43|1|12|17
43|1|13|7
43|1|14|26
43|1|16|2
43|1|17|3
43|1|18|7
43|1|23|3
43|1|29|11
43|1|32|2
43|1|33|2
43|1|36|2
43|1|41|1
43|1|45|7
43|1|49|1
43|1|51|3
43|2|4|1
43|2|5|1
43|2|11|2
43|2|16|4
43|2|17|2
43|2|22|1
43|3|3|17
43|3|5|16
43|3|6|5
43|3|8|1
43|3|13|1
43|3|14|5
43|3|15|5
43|3|16|35
43|3|17|9
43|3|18|5
43|3|19|5
43|3|20|2
43|3|21|3
43|3|27|3
43|3|30|1
43|3|32|1
43|3|33|1
43|3|34|2
43|3|35|3
43|3|36|18
43|4|10|20
43|4|11|1
43|4|14|15
43|4|20|1
43|4|21|1
43|4|22|2
43|4|23|2
43|4|24|9
43|4|32|1
43|4|34|7
43|4|35|2
43|4|36|2
43|4|38|2
43|5|8|1
43|5|14|2
43|5|18|1
43|5|19|6
43|5|21|5
43|5|23|1
43|5|24|16
43|5|25|4
43|5|26|3
43|5|28|3
43|5|29|6
43|5|30|3
43|5|36|1
43|5|37|1
43|5|38|1
43|5|39|1
43|5|40|1
43|5|42|1
43|5|44|1
43|5|46|5
43|6|5|1
43|6|15|2
43|6|27|8
43|6|28|1
43|6|29|6
43|6|31|2
43|6|33|2
43|6|35|6
43|6|37|5
43|6|38|4
43|6|39|3
43|6|40|11
43|6|41|1
43|6|44|7
43|6|45|17
43|6|46|2
43|6|47|1
43|6|48|1
43|6|51|4
43|6|53|1
43|6|54|1
43|6|55|1
43|6|56|2
43|6|57|2
43|6|58|1
43|6|59|2
43|6|63|15
43|6|65|3
43|6|66|1
43|6|67|1
43|6|68|3
43|7|6|11
43|7|7|3
43|7|8|1
43|7|15|1
43|7|16|3
43|7|17|5
43|7|18|1
43|7|24|2
43|7|29|1
43|7|30|1
43|7|37|13
43|7|38|20
43|7|39|7
43|7|42|1
43|7|51|1
43|8|5|5
43|8|6|1
43|8|7|1
43|8|9|1
43|8|11|2
43|8|12|23
43|8|19|1
43|8|20|1
43|8|24|2
43|8|28|4
43|8|29|2
43|8|31|8
43|8|32|22
43|8|34|2
43|8|36|12
43|8|37|1
43|8|38|1
43|8|42|4
43|8|44|10
43|8|47|1
43|8|51|4
43|8|54|1
43|8|55|1
43|8|56|1
43|8|58|1
43|9|3|1
43|9|4|10
43|9|5|3
43|9|31|9
43|9|33|1
43|9|41|3
43|10|1|3
43|10|3|1
43|10|7|2
43|10|8|1
43|10|9|7
43|10|10|26
43|10|11|5
43|10|13|1
43|10|14|6
43|10|15|2
43|10|16|5
43|10|18|1
43|10|27|10
43|10|28|20
43|10|29|3
43|10|30|16
43|10|33|1
43|10|34|2
43|10|35|1
43|10|36|2
43|11|4|2
43|11|9|1
43|11|10|1
43|11|23|1
43|11|25|17
43|11|26|6
43|11|27|1
43|11|35|1
43|11|40|8
43|11|52|1
43|12|6|1
43|12|13|1
43|12|15|3
43|12|24|7
43|12|25|6
43|12|26|4
43|12|27|1
43|12|28|2
43|12|29|1
43|12|31|6
43|12|32|3
43|12|34|1
43|12|35|6
43|12|36|3
43|12|38|1
43|12|39|1
43|12|40|7
43|12|41|2
43|12|42|1
43|12|43|3
43|12|44|1
43|12|45|1
43|12|46|8
43|12|47|3
43|12|48|2
43|12|49|2
43|13|1|1
43|13|3|3
43|13|10|1
43|13|13|2
43|13|14|1
43|13|15|3
43|13|17|10
43|13|18|3
43|13|20|1
43|13|31|1
43|13|32|1
43|13|34|27
43|13|35|12
43|13|36|1
43|14|1|16
43|14|2|5
43|14|3|4
43|14|6|70
43|14|7|1
43|14|9|10
43|14|10|4
43|14|12|7
43|14|13|13
43|14|14|2
43|14|15|33
43|14|16|3
43|14|17|6
43|14|18|1
43|14|19|1
43|14|20|10
43|14|21|19
43|14|22|1
43|14|23|13
43|14|24|3
43|14|26|9
43|14|27|23
43|14|28|1
43|14|30|4
43|15|1|10
43|15|2|7
43|15|3|5
43|15|4|9
43|15|5|24
43|15|6|2
43|15|7|30
43|15|8|5
43|15|9|5
43|15|10|9
43|15|11|4
43|15|12|5
43|15|13|9
43|15|14|5
43|15|15|7
43|15|16|17
43|15|17|1
43|15|18|4
43|15|19|9
43|15|20|1
43|15|21|2
43|15|22|1
43|15|23|1
43|15|24|2
43|15|25|3
43|15|26|3
43|15|27|2
43|16|2|1
43|16|3|1
43|16|7|1
43|16|11|2
43|16|12|1
43|16|13|10
43|16|16|2
43|16|20|2
43|16|22|4
43|16|23|7
43|16|24|9
43|16|27|4
43|16|28|1
43|16|32|1
43|16|33|21
43|17|1|7
43|17|2|5
43|17|3|16
43|17|4|3
43|17|5|4
43|17|6|1
43|17|8|2
43|17|9|2
43|17|11|4
43|17|12|1
43|17|13|3
43|17|14|3
43|17|15|3
43|17|16|2
43|17|17|11
43|17|18|1
43|17|19|3
43|17|21|9
43|17|22|1
43|17|23|8
43|17|24|7
43|17|25|4
43|17|26|7
43|18|9|1
43|18|36|1
43|18|37|3
43|19|11|1
43|19|17|1
43|19|24|2
43|19|28|4
43|19|30|9
43|19|36|1
43|19|37|1
43|20|9|1
43|20|17|2
43|20|21|1
43|20|23|1
43|20|26|1
43|20|27|1
43|20|28|1
43|20|29|6
43|20|30|2
43|20|31|10
43|21|6|1
43|21|15|3
43|21|17|4
43|21|25|4
44|1|1|1
44|1|4|1
44|1|5|2
44|1|7|4
44|1|8|27
44|1|13|1
44|1|14|1
44|1|16|6
44|1|20|1
44|2|1|2
44|2|2|1
44|2|4|4
44|2|16|2
44|2|17|5
44|2|18|1
44|2|19|1
44|2|20|1
44|2|21|6
44|2|22|1
44|2|23|1
44|2|24|2
44|2|25|2
44|2|28|2
44|2|32|1
44|2|33|1
44|2|34|1
44|2|35|1
44|2|38|30
44|2|39|4
44|2|40|1
44|2|41|2
44|2|42|4
44|3|6|8
44|3|8|2
44|3|11|1
44|3|12|1
44|3|13|1
44|3|15|2
44|3|16|3
44|3|17|1
44|3|19|5
44|3|22|2
44|3|25|1
44|3|26|1
44|4|10|1
44|4|11|3
44|4|12|17
44|4|13|3
44|4|19|2
44|4|20|2
44|4|24|3
44|4|27|1
44|4|29|1
44|4|30|2
44|4|31|2
44|4|32|5
44|4|33|1
44|4|35|1
44|5|16|1
44|5|29|3
44|5|32|1
44|5|38|1
44|5|39|1
44|5|41|2
44|6|7|2
44|6|8|2
44|7|2|1
44|7|6|1
44|7|20|1
44|7|21|1
44|7|37|1
44|7|42|1
44|7|48|2
44|7|50|1
44|7|51|1
44|7|53|1
44|7|59|1
44|7|60|2
44|8|3|1
44|8|5|1
44|8|7|1
44|8|12|2
44|8|15|1
44|8|16|1
44|8|17|1
44|8|21|1
44|8|22|1
44|8|25|1
44|8|32|11
44|8|36|3
44|8|38|2
44|8|39|1
44|9|1|1
44|9|11|1
44|9|16|1
44|9|20|1
44|9|22|1
44|9|34|2
44|9|36|1
44|9|40|1
44|10|2|2
44|10|3|2
44|10|4|2
44|10|6|1
44|10|34|3
44|10|35|1
44|10|38|7
44|10|41|1
44|10|42|2
44|10|43|5
44|10|44|1
44|10|45|3
44|10|46|1
44|10|47|1
44|10|48|2
44|11|15|1
44|11|18|2
44|11|20|1
44|11|21|1
44|11|23|1
44|12|7|1
44|12|23|1
44|12|24|1
44|13|10|1
44|13|13|1
44|13|23|1
44|13|31|1
44|13|33|2
44|13|38|2
44|13|39|6
44|13|41|1
44|13|45|1
44|13|46|2
44|13|47|4
44|13|48|2
44|13|52|1
44|14|3|1
44|14|8|1
44|14|11|1
44|14|15|1
44|14|16|2
44|14|17|1
44|14|22|4
44|14|27|2
44|15|7|1
44|15|8|1
44|15|9|2
44|15|11|1
44|15|12|1
44|15|16|2
44|15|20|1
44|15|24|1
44|15|29|1
44|15|38|1
44|16|9|1
44|16|14|1
44|16|18|1
44|16|25|6
44|16|26|1
44|16|30|1
44|16|31|6
44|16|32|1
44|17|11|3
44|17|24|6
44|17|25|1
44|17|26|2
44|17|28|5
44|17|29|1
44|17|30|6
44|18|9|3
44|18|10|3
44|18|25|1
44|19|3|1
44|19|4|1
44|19|5|2
44|19|6|1
44|19|12|1
44|19|18|1
44|19|20|1
44|20|7|2
44|20|20|1
44|20|21|2
44|20|24|10
44|20|26|1
44|20|27|2
44|20|28|8
44|20|32|5
44|20|35|13
44|21|13|2
44|22|15|1
44|22|16|2
44|23|5|1
44|24|16|1
44|26|11|1
44|26|16|1
44|26|17|1
44|26|18|15
44|26|20|2
44|26|22|1
44|26|25|1
44|28|3|1
44|28|5|1
44|28|6|1
44|28|8|1
44|28|9|1
44|28|25|1
44|28|26|3
44|28|27|2
44|28|28|1
44|28|31|1
45|1|1|1
45|1|6|1
45|1|7|1
45|1|8|1
45|1|9|1
45|1|16|14
45|1|17|8
45|1|18|3
45|1|19|4
45|1|20|10
45|1|21|4
45|1|22|1
45|1|24|5
45|1|26|3
45|1|27|3
45|1|28|7
45|1|29|1
45|1|31|1
45|1|32|1
45|2|1|3
45|2|2|1
45|2|3|1
45|2|4|7
45|2|6|4
45|2|7|6
45|2|10|2
45|2|11|3
45|2|13|4
45|2|15|1
45|2|16|3
45|2|20|1
45|2|21|1
45|2|24|2
45|2|28|1
45|2|29|6
45|3|2|1
45|3|3|1
45|3|4|1
45|3|5|2
45|3|6|1
45|3|8|1
45|3|9|1
45|3|10|6
45|3|11|1
45|3|12|1
45|3|13|3
45|3|14|1
45|3|19|1
45|3|20|4
45|3|21|4
45|3|22|2
45|3|23|13
45|3|24|8
45|3|25|6
45|3|26|5
45|3|28|1
45|3|29|2
45|3|30|1
45|3|31|1
45|4|3|1
45|4|5|2
45|4|6|2
45|4|7|3
45|4|8|2
45|4|9|1
45|4|13|1
45|4|15|2
45|4|16|1
45|4|17|10
45|4|18|2
45|4|21|6
45|4|23|2
45|4|24|2
45|4|25|8
45|5|1|11
45|5|2|10
45|5|3|14
45|5|4|2
45|5|5|11
45|5|6|12
45|5|8|16
45|5|9|2
45|5|10|8
45|5|11|1
45|5|12|8
45|5|13|1
45|5|17|2
45|5|19|3
45|5|20|3
45|5|21|4
45|6|1|6
45|6|2|2
45|6|3|5
45|6|4|10
45|6|5|7
45|6|6|5
45|6|8|1
45|6|9|1
45|6|10|1
45|6|11|2
45|6|12|1
45|6|13|4
45|6|14|5
45|6|15|1
45|6|16|4
45|6|18|2
45|6|19|1
45|6|22|3
45|6|23|14
45|7|2|2
45|7|3|2
45|7|4|5
45|7|6|3
45|7|12|1
45|7|14|1
45|7|15|6
45|7|18|2
45|7|22|8
45|7|23|4
45|7|24|1
45|7|25|2
45|8|1|24
45|8|2|10
45|8|3|6
45|8|4|5
45|8|5|12
45|8|6|11
45|8|7|4
45|8|8|1
45|8|9|10
45|8|10|4
45|8|11|22
45|8|12|2
45|8|13|8
45|8|14|19
45|8|15|13
45|8|16|5
45|8|17|9
45|8|18|9
45|8|24|3
45|8|25|8
45|8|26|7
45|8|27|3
45|8|28|75
45|8|29|44
45|8|30|15
45|8|31|41
45|8|32|11
45|8|33|4
45|8|34|4
45|8|35|12
45|8|36|4
45|8|37|12
45|8|38|2
45|8|39|12
45|9|4|1
45|9|5|2
45|9|11|1
45|9|13|2
45|9|15|1
45|9|16|1
45|9|17|1
45|9|20|5
45|9|22|3
45|9|23|7
45|9|24|3
45|9|25|2
45|9|26|3
45|9|30|1
45|9|31|1
45|9|32|2
45|9|33|10
45|10|3|3
45|10|4|3
45|10|8|1
45|10|9|11
45|10|10|2
45|10|11|5
45|10|12|4
45|10|13|3
45|10|14|3
45|10|15|4
45|10|16|1
45|10|17|16
45|10|18|4
45|10|19|1
45|10|20|1
45|11|2|2
45|11|5|1
45|11|6|2
45|11|8|3
45|11|20|1
45|11|22|1
45|11|25|1
45|11|26|2
45|11|27|3
45|11|29|3
45|11|31|1
45|11|32|1
45|11|33|9
45|11|34|4
45|11|36|8
45|12|1|23
45|12|2|77
45|12|3|10
45|12|4|1
45|12|5|1
45|12|6|3
45|12|8|2
45|12|9|9
45|12|10|9
45|12|11|4
45|12|12|16
45|12|13|1
45|12|14|3
45|12|15|2
45|12|16|5
45|12|17|5
45|12|18|3
45|12|19|9
45|12|20|4
45|12|21|7
45|13|1|7
45|13|3|1
45|13|4|1
45|13|7|1
45|13|8|6
45|13|9|13
45|13|10|6
45|13|11|3
45|13|12|4
45|13|13|4
45|13|14|20
45|14|1|1
45|14|3|1
45|14|4|1
45|14|5|2
45|14|6|3
45|14|7|1
45|14|8|2
45|14|9|1
45|14|10|1
45|14|11|2
45|14|12|1
45|14|13|1
45|14|17|12
45|14|19|1
45|14|20|1
45|15|1|6
45|15|2|2
45|15|3|2
45|15|4|8
45|15|5|1
45|15|8|1
45|15|9|1
45|15|11|1
45|15|12|1
45|15|13|12
45|15|19|2
45|15|21|1
45|15|22|1
45|15|33|1
45|16|17|7
45|16|18|2
45|16|19|2
45|16|20|4
45|16|25|6
45|16|26|2
45|16|27|1
46|1|2|4
46|1|3|1
46|1|4|1
46|1|5|2
46|1|7|1
46|1|8|9
46|1|9|10
46|1|10|12
46|1|13|1
46|1|16|1
46|1|18|7
46|1|19|6
46|1|20|1
46|1|23|1
46|1|24|1
46|1|25|1
46|1|27|6
46|1|28|3
46|1|29|2
46|1|30|11
46|1|31|5
46|2|2|1
46|2|4|3
46|2|5|4
46|2|6|1
46|2|7|3
46|2|8|1
46|2|9|17
46|2|10|5
46|2|11|2
46|2|12|6
46|2|13|2
46|2|14|14
46|2|15|1
46|2|16|4
46|3|1|4
46|3|2|3
46|3|3|3
46|3|5|1
46|3|6|1
46|3|7|2
46|3|8|1
46|3|9|9
46|3|10|3
46|3|11|7
46|3|13|1
46|3|14|2
46|3|15|1
46|3|16|16
46|3|17|1
46|3|18|1
46|3|19|8
46|3|20|1
46|4|1|1
46|4|2|2
46|4|3|1
46|4|5|6
46|4|7|1
46|4|9|1
46|4|10|1
46|4|13|1
46|4|16|2
46|4|20|8
46|5|4|2
46|5|6|1
46|5|7|1
46|5|8|1
46|5|10|1
46|5|11|4
46|6|2|1
46|6|9|22
46|6|10|5
46|6|11|7
46|6|12|2
46|6|13|1
46|6|14|2
46|6|15|1
46|6|16|2
46|6|17|2
46|6|18|3
46|6|19|12
46|6|20|8
46|7|3|1
46|7|7|1
46|7|10|1
46|7|11|1
46|7|23|1
46|7|31|1
46|7|32|2
46|7|33|1
46|8|1|1
46|8|2|2
46|8|3|23
46|8|6|7
46|8|8|1
46|8|9|2
46|8|13|1
46|9|7|1
46|9|9|2
46|9|10|1
46|9|12|1
46|9|19|1
46|9|22|1
46|9|24|9
46|9|25|5
46|9|26|1
46|9|27|10
46|10|4|1
46|10|7|2
46|10|8|2
46|10|10|1
46|10|11|1
46|10|12|3
46|10|13|36
46|10|18|1
46|10|21|3
46|10|22|1
46|10|23|2
46|10|24|2
46|10|26|1
46|10|31|4
46|10|32|1
46|10|33|4
46|11|1|7
46|11|3|1
46|11|7|1
46|11|12|1
46|11|23|1
46|11|25|1
46|11|28|1
46|11|29|1
46|11|32|2
46|12|3|2
46|12|6|1
46|12|7|1
46|12|10|1
46|12|12|7
46|12|13|3
46|12|18|1
46|12|21|1
46|12|22|1
46|12|25|1
46|12|26|3
46|12|27|2
46|12|28|2
46|12|29|1
46|12|30|1
46|12|31|2
46|13|1|9
46|13|2|3
46|13|3|1
46|13|4|13
46|13|5|2
46|13|7|12
46|13|8|3
46|13|9|1
46|13|10|1
46|13|11|4
46|13|12|6
46|13|13|24
46|14|1|1
46|14|4|1
46|14|5|1
46|14|12|1
46|14|15|1
46|14|20|7
46|14|21|2
46|14|24|1
46|14|25|1
46|14|26|2
46|14|34|2
46|14|40|1
46|15|1|1
46|15|2|1
46|15|3|5
46|15|4|1
46|15|9|1
46|15|10|7
46|15|14|1
46|15|17|1
46|15|18|1
46|15|20|2
46|15|21|2
46|15|22|4
46|15|23|2
46|15|25|2
46|15|26|2
46|15|27|2
46|15|30|1
46|15|31|1
46|15|33|10
46|15|34|1
46|15|36|1
46|15|38|1
46|15|45|4
46|15|46|1
46|15|47|1
46|15|49|3
46|15|50|1
46|15|51|2
46|15|52|3
46|15|54|2
46|15|55|2
46|15|56|1
46|15|57|7
46|15|58|43
46|16|9|3
46|16|10|1
46|16|13|65
46|16|14|1
46|16|22|1
47|1|1|2
47|1|3|4
47|1|4|4
47|1|5|1
47|1|8|2
47|1|10|4
47|1|11|1
47|1|19|1
47|1|20|2
47|1|22|4
47|1|24|1
47|2|10|2
47|2|11|3
47|2|12|2
47|2|14|4
47|2|17|1
47|3|3|6
47|3|4|1
47|3|5|6
47|3|6|7
47|3|7|1
47|3|8|2
47|3|14|2
47|3|17|17
47|3|18|29
47|4|1|5
47|4|2|2
47|4|3|4
47|4|4|17
47|4|6|15
47|4|7|11
47|4|8|13
47|4|10|4
47|4|11|2
47|4|12|2
47|4|13|1
47|4|14|2
47|4|15|1
47|4|16|11
47|4|17|15
47|4|18|14
47|5|1|10
47|5|5|3
47|5|6|1
47|5|7|8
47|5|8|2
47|5|9|1
47|5|10|7
47|5|13|1
47|5|14|5
47|5|15|20
47|5|16|1
47|5|17|54
47|5|18|5
47|5|19|5
47|5|20|4
47|5|21|25
47|6|1|2
47|6|2|4
47|6|7|1
47|6|14|26
47|6|16|49
47|6|17|6
47|6|18|7
47|7|1|15
47|7|5|2
47|7|6|3
47|7|7|1
47|7|9|1
47|7|10|2
47|8|7|2
47|8|8|1
47|8|9|8
47|8|12|1
47|8|21|2
47|9|6|10
47|9|7|4
47|9|8|16
47|9|9|1
47|9|10|4
47|9|11|3
47|9|12|1
47|9|13|1
47|9|14|1
47|9|15|2
47|10|3|1
47|10|4|20
47|10|5|25
47|10|17|2
47|10|18|1
47|11|2|2
47|11|3|7
47|11|4|1
47|11|13|2
47|11|14|1
47|11|15|2
47|11|27|1
47|11|31|1
47|12|3|1
47|12|4|1
47|12|5|1
47|12|7|1
47|12|8|4
47|12|9|48
47|12|10|18
47|12|14|1
47|13|3|1
47|13|4|4
47|13|5|7
47|13|6|1
47|13|8|1
47|13|11|2
47|13|14|1
48|1|3|1
48|1|4|4
48|1|6|6
48|1|7|1
48|1|10|8
48|1|15|2
48|1|16|2
48|2|2|1
48|2|4|2
48|2|6|2
48|2|9|1
48|2|16|2
48|2|19|2
48|2|20|28
48|2|21|2
48|3|2|1
48|3|5|1
48|3|6|1
48|3|7|1
48|3|8|2
48|3|10|3
48|3|11|3
48|3|13|14
48|3|14|3
48|3|16|1
48|3|17|1
48|3|20|2
48|3|21|1
48|3|22|2
48|3|24|2
48|3|26|5
48|3|27|3
48|3|28|9
48|3|29|4
48|4|4|5
48|4|5|4
48|4|6|10
48|4|7|3
48|4|8|1
48|4|9|3
48|4|10|1
48|4|27|1
48|5|1|12
48|5|4|6
48|5|6|7
48|5|7|3
48|5|8|2
48|5|13|17
48|5|14|7
48|5|16|20
48|5|17|7
48|5|18|2
48|5|19|17
48|5|21|10
48|5|22|41
48|5|23|8
48|5|24|8
48|5|25|6
48|5|26|1
48|6|1|10
48|6|2|6
48|6|3|2
48|6|4|1
48|6|7|14
48|6|8|7
48|6|9|41
48|6|10|7
48|6|12|1
48|6|14|5
48|6|15|4
48|6|16|1
49|1|1|2
49|1|3|12
49|1|4|24
49|1|5|7
49|1|6|6
49|1|7|13
49|1|8|3
49|1|9|4
49|1|10|3
49|1|11|7
49|1|12|2
49|1|13|3
49|1|14|4
49|1|16|1
49|1|17|22
49|1|18|13
49|1|19|9
49|1|20|5
49|1|21|4
49|1|22|3
49|1|23|4
49|2|1|4
49|2|2|4
49|2|3|3
49|2|4|4
49|2|5|8
49|2|6|10
49|2|7|2
49|2|8|30
49|2|9|4
49|2|10|38
49|2|11|1
49|2|12|1
49|2|14|3
49|2|15|1
49|2|16|4
49|2|18|8
49|2|19|2
49|2|20|8
49|2|21|2
49|2|22|7
49|3|3|1
49|3|5|1
49|3|6|1
49|3|7|3
49|3|8|3
49|3|9|4
49|3|10|2
49|3|11|1
49|3|12|5
49|3|13|1
49|3|16|22
49|3|17|6
49|3|18|4
49|3|19|5
49|3|20|34
49|3|21|8
49|4|1|8
49|4|2|5
49|4|3|4
49|4|4|1
49|4|5|1
49|4|6|3
49|4|7|3
49|4|8|2
49|4|11|5
49|4|12|2
49|4|13|1
49|4|14|8
49|4|15|4
49|4|16|3
49|4|17|4
49|4|20|5
49|4|21|1
49|4|22|15
49|4|23|11
49|4|24|16
49|4|25|1
49|4|26|11
49|4|27|3
49|4|28|2
49|4|29|28
49|4|30|7
49|4|31|7
49|4|32|14
49|5|1|10
49|5|2|8
49|5|3|3
49|5|4|3
49|5|5|3
49|5|6|12
49|5|8|12
49|5|9|4
49|5|10|1
49|5|11|7
49|5|13|3
49|5|14|15
49|5|15|2
49|5|16|9
49|5|17|5
49|5|18|1
49|5|19|2
49|5|20|4
49|5|21|3
49|5|22|6
49|5|25|4
49|5|26|7
49|5|27|3
49|5|28|2
49|5|31|1
49|5|33|1
49|6|1|7
49|6|2|1
49|6|3|3
49|6|4|8
49|6|6|4
49|6|7|1
49|6|8|1
49|6|10|27
49|6|11|19
49|6|12|22
49|6|13|9
49|6|14|4
49|6|15|2
49|6|16|4
49|6|17|6
49|6|18|20
49|6|19|3
49|6|20|2
49|6|24|1
50|1|1|1
50|1|4|1
50|1|6|32
50|1|9|8
50|1|10|3
50|1|11|5
50|1|12|1
50|1|18|1
50|1|19|2
50|1|20|4
50|1|21|6
50|1|23|6
50|1|27|5
50|1|29|4
50|2|1|4
50|2|2|6
50|2|3|15
50|2|4|10
50|2|5|13
50|2|6|11
50|2|7|12
50|2|8|9
50|2|9|5
50|2|10|7
50|2|11|7
50|2|12|9
50|2|13|20
50|2|14|3
50|2|15|7
50|2|16|5
50|2|25|1
50|3|1|1
50|3|2|3
50|3|3|4
50|3|4|1
50|3|7|7
50|3|8|13
50|3|9|13
50|3|10|20
50|3|11|2
50|3|12|10
50|3|13|10
50|3|14|20
50|3|17|1
50|3|18|1
50|3|19|3
50|3|20|11
50|3|21|6
50|4|1|1
50|4|3|1
50|4|4|14
50|4|5|3
50|4|6|48
50|4|7|17
50|4|8|21
50|4|9|1
50|4|11|8
50|4|12|5
50|4|13|25
50|4|17|2
50|4|18|2
50|4|19|23
50|4|20|1
51|1|2|1
51|1|5|1
51|1|6|1
51|1|8|1
51|1|9|5
51|1|10|12
51|1|11|7
51|1|12|3
51|1|13|10
51|1|14|10
51|1|15|11
51|1|16|12
51|1|17|8
51|1|18|9
51|1|19|3
51|1|20|6
51|1|21|2
51|1|22|7
51|1|23|6
51|1|24|3
51|1|26|2
51|1|27|14
51|1|28|4
51|1|29|3
51|2|2|1
51|2|3|3
51|2|5|2
51|2|6|4
51|2|7|6
51|2|8|5
51|2|9|4
51|2|10|7
51|2|11|2
51|2|12|6
51|2|13|4
51|2|14|5
51|2|15|3
51|2|16|3
51|2|17|6
51|2|18|1
51|2|19|1
51|2|20|1
51|3|1|26
51|3|2|11
51|3|3|7
51|3|4|6
51|3|5|15
51|3|6|1
51|3|8|8
51|3|9|2
51|3|10|17
51|3|11|6
51|3|12|18
51|3|13|9
51|3|14|3
51|3|15|8
51|3|16|20
51|3|17|19
51|3|18|3
51|3|19|5
51|3|20|4
51|3|21|2
51|3|22|1
51|3|23|13
51|3|24|1
51|3|25|1
51|4|1|1
51|4|2|8
51|4|3|4
51|4|4|1
51|4|5|4
51|4|6|8
51|4|12|2
52|1|3|6
52|1|4|1
52|1|5|2
52|1|6|3
52|1|10|3
52|2|2|1
52|2|4|2
52|2|12|6
52|2|13|7
52|2|18|1
52|3|2|1
52|3|3|1
52|3|4|1
52|3|5|1
52|3|8|1
52|3|12|3
52|3|13|3
52|4|1|5
52|4|2|2
52|4|3|4
52|4|7|3
52|4|9|1
52|4|11|2
52|4|12|1
52|4|14|2
52|4|16|9
52|4|17|4
52|4|18|2
52|5|2|2
52|5|4|1
52|5|5|1
52|5|6|4
52|5|8|7
52|5|9|3
52|5|10|1
52|5|11|8
52|5|12|2
52|5|13|2
52|5|14|4
52|5|15|5
52|5|16|4
52|5|17|8
52|5|18|12
52|5|19|2
52|5|21|2
52|5|22|1
52|5|23|6
52|5|24|16
53|1|3|1
53|1|5|2
53|1|7|3
53|1|8|2
53|1|9|1
53|1|10|1
53|1|11|2
53|1|12|1
53|2|3|2
53|2|6|1
53|2|8|1
53|2|9|2
53|2|10|2
53|2|11|2
53|2|12|3
53|2|13|6
53|2|14|7
53|2|15|1
53|2|16|3
53|2|17|4
53|3|3|11
53|3|4|1
53|3|5|1
53|3|6|4
53|3|7|3
53|3|9|3
53|3|13|2
53|3|14|1
53|3|15|2
53|3|16|4
54|1|1|2
54|1|2|1
54|1|5|4
54|1|7|1
54|1|9|1
54|1|10|3
54|1|11|1
54|1|13|2
54|1|14|2
54|1|15|9
54|1|16|6
54|1|17|1
54|1|18|3
54|2|1|1
54|2|4|5
54|2|5|6
54|2|6|2
54|2|9|1
54|2|10|1
54|2|11|1
54|2|12|1
54|2|14|2
54|3|1|1
54|3|2|1
54|3|3|1
54|3|11|1
54|3|16|6
54|4|1|6
54|4|6|1
54|4|8|2
54|4|10|1
54|4|12|15
54|4|14|2
54|4|16|6
54|5|1|3
54|5|6|1
54|5|8|4
54|5|17|1
54|5|18|4
54|5|20|1
54|6|3|1
54|6|4|1
54|6|5|2
54|6|6|4
54|6|7|2
54|6|8|2
54|6|9|2
54|6|10|6
54|6|11|2
54|6|12|7
54|6|16|2
54|6|17|3
54|6|18|2
54|6|20|1
55|1|2|1
55|1|6|7
55|1|7|31
55|1|8|5
55|1|9|21
55|1|10|2
55|1|12|2
55|1|13|3
55|1|14|4
55|2|1|8
55|2|2|3
55|2|3|7
55|2|4|1
55|2|5|1
55|2|7|1
55|2|10|2
55|2|11|3
55|2|12|8
55|2|13|5
55|2|15|19
55|2|16|2
55|2|18|1
55|2|19|31
55|2|20|1
55|2|21|3
55|2|22|6
55|2|24|6
55|2|25|5
55|2|26|2
55|3|1|4
55|3|5|8
55|3|6|1
55|3|8|1
55|3|9|1
55|3|11|2
55|3|12|10
55|3|13|1
55|3|14|2
55|3|15|7
55|3|16|42
55|3|17|10
55|4|1|1
55|4|2|3
55|4|3|4
55|4|5|4
55|4|6|1
55|4|7|12
55|4|8|5
55|4|17|3
55|4|18|5
55|4|22|1
56|1|1|3
56|1|2|5
56|1|3|1
56|1|8|1
56|1|9|1
56|1|10|1
56|1|11|1
56|1|15|2
56|1|16|8
56|2|3|2
56|2|4|2
56|2|5|5
56|2|6|1
56|2|7|5
56|2|8|1
56|2|11|8
56|2|12|6
56|2|13|5
56|2|14|13
56|2|15|1
56|3|1|3
56|3|2|2
56|3|3|7
56|3|4|6
56|3|5|15
56|3|6|5
56|3|7|1
56|3|8|3
56|3|9|1
56|3|10|1
56|3|14|2
57|1|21|1
58|1|1|3
58|1|2|8
58|1|3|15
58|1|4|1
58|1|5|6
58|1|6|4
58|1|7|1
58|1|8|4
58|1|9|3
58|1|10|3
58|1|11|1
58|1|12|4
58|1|13|2
58|1|14|1
58|2|1|2
58|2|2|1
58|2|3|3
58|2|6|1
58|2|7|1
58|2|8|2
58|2|9|5
58|2|10|4
58|2|11|1
58|2|12|1
58|2|13|1
58|2|14|7
58|2|15|5
58|2|17|1
58|2|18|2
58|3|1|2
58|3|4|1
58|3|6|4
58|3|7|28
58|3|8|1
58|3|9|1
58|3|12|4
58|3|13|5
58|3|14|5
58|3|15|1
58|4|2|1
58|4|4|1
58|4|6|2
58|4|7|1
58|4|11|1
58|4|12|35
58|4|13|17
58|4|15|4
58|4|16|19
58|5|1|1
58|5|5|2
58|5|7|2
58|5|8|1
58|5|9|2
58|5|11|1
58|5|12|5
58|5|13|3
58|5|14|2
58|6|1|4
58|6|4|7
58|6|5|1
58|6|6|4
58|6|7|1
58|6|10|8
58|6|11|5
58|6|12|3
58|6|17|2
58|6|18|4
58|6|19|1
58|7|3|1
58|7|17|1
58|7|18|2
58|7|19|3
58|7|21|1
58|7|22|1
58|7|25|13
58|7|26|1
58|7|27|2
58|8|1|1
58|8|3|1
58|8|5|1
58|8|6|3
58|8|8|3
58|8|9|1
58|8|10|44
58|8|11|1
58|8|12|3
58|8|13|3
58|9|8|2
58|9|11|1
58|9|12|7
58|9|13|1
58|9|14|14
58|9|15|9
58|9|22|4
58|9|23|1
58|9|24|5
58|9|26|2
58|9|27|2
58|9|28|5
58|10|1|1
58|10|4|6
58|10|5|9
58|10|7|2
58|10|9|1
58|10|10|4
58|10|12|2
58|10|13|1
58|10|14|3
58|10|16|10
58|10|17|5
58|10|19|4
58|10|22|14
58|10|23|9
58|10|24|11
58|10|25|9
58|10|26|5
58|10|27|1
58|10|29|1
58|10|30|4
58|10|31|1
58|10|34|1
58|10|35|6
58|10|36|13
58|10|37|5
58|10|38|7
58|10|39|5
58|11|1|26
58|11|3|6
58|11|4|3
58|11|5|1
58|11|6|17
58|11|7|1
58|11|8|1
58|11|10|2
58|11|11|3
58|11|12|1
58|11|13|4
58|11|16|3
58|11|17|2
58|11|19|3
58|11|23|1
58|11|24|1
58|11|25|2
58|11|26|2
58|11|27|4
58|11|30|1
58|11|32|1
58|11|33|1
58|11|34|1
58|11|36|1
58|12|1|24
58|12|2|20
58|12|3|7
58|12|4|1
58|12|5|6
58|12|6|3
58|12|7|1
58|12|10|4
58|12|11|9
58|12|12|3
58|12|13|3
58|12|14|9
58|12|15|5
58|12|22|1
58|12|24|3
58|12|28|2
58|12|29|1
58|13|1|4
58|13|2|4
58|13|3|1
58|13|4|7
58|13|5|23
58|13|6|43
58|13|7|5
58|13|8|12
58|13|9|1
58|13|12|1
58|13|14|3
58|13|15|7
58|13|16|7
58|13|17|8
58|13|18|1
58|13|20|6
58|13|21|9
59|1|2|24
59|1|3|10
59|1|4|8
59|1|5|22
59|1|6|9
59|1|8|5
59|1|9|3
59|1|10|1
59|1|11|1
59|1|12|27
59|1|14|7
59|1|15|8
59|1|16|3
59|1|17|15
59|1|18|14
59|1|19|14
59|1|20|2
59|1|21|12
59|1|22|15
59|1|23|4
59|1|25|12
59|1|26|3
59|1|27|16
59|2|5|8
59|2|8|5
59|2|10|2
59|2|11|1
59|2|12|1
59|2|13|3
59|2|14|8
59|2|15|2
59|2|16|3
59|2|17|2
59|2|20|1
59|2|21|1
59|2|22|1
59|2|23|1
59|2|26|2
59|3|1|3
59|3|2|8
59|3|5|4
59|3|6|6
59|3|8|4
59|3|9|2
59|3|12|2
59|3|13|6
59|3|14|3
59|3|15|2
59|3|16|4
59|3|17|14
59|3|18|6
59|4|1|4
59|4|2|1
59|4|3|3
59|4|4|13
59|4|5|3
59|4|6|8
59|4|7|8
59|4|8|17
59|4|9|3
59|4|10|7
59|4|11|3
59|4|12|2
59|4|13|4
59|4|14|3
59|4|15|3
59|4|16|1
59|4|17|5
59|5|1|1
59|5|3|1
59|5|4|1
59|5|7|10
59|5|8|6
59|5|9|4
59|5|10|1
59|5|11|5
59|5|12|2
59|5|13|1
59|5|14|2
59|5|15|8
59|5|16|40
59|5|17|1
59|5|18|1
59|5|19|4
59|5|20|4
60|1|2|5
60|1|3|11
60|1|4|4
60|1|5|3
60|1|6|29
60|1|7|16
60|1|8|12
60|1|11|1
60|1|12|3
60|1|13|8
60|1|14|4
60|1|15|11
60|1|16|6
60|1|17|1
60|1|18|8
60|1|19|14
60|1|20|9
60|1|21|5
60|1|22|19
60|1|23|11
60|1|24|6
60|1|25|5
60|2|1|5
60|2|2|9
60|2|3|2
60|2|4|4
60|2|5|13
60|2|6|5
60|2|7|1
60|2|8|5
60|2|9|31
60|2|10|4
60|2|11|14
60|2|12|12
60|2|13|4
60|2|14|2
60|2|15|3
60|2|16|4
60|2|17|2
60|2|19|1
60|2|20|3
60|2|21|7
60|2|22|3
60|2|23|7
60|2|24|21
60|2|25|19
60|3|1|2
60|3|3|3
60|3|4|6
60|3|5|1
60|3|6|1
60|3|7|8
60|3|8|10
60|3|9|11
60|3|10|3
60|3|11|3
60|3|12|7
60|3|13|2
60|3|14|5
60|3|15|6
60|3|16|2
60|3|17|2
60|3|18|13
60|3|19|1
60|3|21|5
60|3|22|4
60|4|1|6
60|4|2|11
60|4|3|1
60|4|4|2
60|4|5|2
60|4|6|1
60|4|7|7
60|4|8|8
60|4|9|1
60|4|10|5
60|4|11|5
60|4|12|10
60|4|13|9
60|4|14|9
60|4|16|6
60|4|17|3
60|4|18|2
60|4|19|3
60|5|2|2
60|5|3|3
60|5|4|5
60|5|5|26
60|5|6|11
60|5|7|27
60|5|8|25
60|5|9|5
60|5|10|41
60|5|11|1
61|1|1|2
61|1|2|3
61|1|3|13
61|1|4|9
61|1|5|13
61|1|6|2
61|1|7|1
61|1|8|4
61|1|9|3
61|1|10|5
61|1|11|3
61|1|12|1
61|1|15|1
61|1|17|27
61|1|18|2
61|1|19|6
61|1|20|1
61|1|21|9
61|2|1|8
61|2|3|5
61|2|4|5
61|2|9|3
61|2|13|1
61|2|15|1
61|2|19|2
61|2|20|7
61|2|21|4
61|2|22|5
61|3|3|2
61|3|5|3
61|3|7|1
61|3|8|1
61|3|9|8
61|3|10|7
61|3|12|3
61|3|13|3
61|3|14|4
61|3|17|3
61|3|18|9
62|1|1|8
62|1|2|4
62|1|3|3
62|1|5|14
62|1|6|3
62|1|7|13
62|1|8|7
62|1|9|10
62|1|10|3
62|2|1|6
62|2|2|4
62|2|3|4
62|2|4|7
62|2|5|9
62|2|6|8
62|2|7|1
62|2|8|2
62|2|9|2
62|2|10|4
62|2|12|1
62|2|14|1
62|2|15|14
62|2|16|8
62|2|17|9
62|2|18|3
62|2|19|1
62|2|20|4
62|2|22|2
62|2|23|3
62|2|24|4
62|2|25|4
62|2|27|7
62|2|28|4
62|2|29|4
62|3|1|14
62|3|2|10
62|3|3|5
62|3|5|3
62|3|6|2
62|3|7|3
62|3|8|7
62|3|9|5
62|3|10|4
62|3|11|1
62|3|12|1
62|3|13|3
62|3|14|5
62|3|15|2
62|3|16|9
62|3|17|10
62|3|18|8
62|3|19|2
62|3|20|3
62|3|21|4
62|3|22|13
62|3|23|3
62|3|24|7
62|4|1|7
62|4|2|2
62|4|3|4
62|4|4|20
62|4|5|2
62|4|6|3
62|4|7|9
62|4|8|3
62|4|9|10
62|4|10|24
62|4|11|6
62|4|12|8
62|4|13|3
62|4|14|3
62|4|15|7
62|4|16|7
62|4|17|2
62|4|18|7
62|4|19|9
62|4|20|9
62|4|21|5
62|5|1|5
62|5|2|3
62|5|3|7
62|5|4|8
62|5|5|7
62|5|6|2
62|5|7|1
62|5|8|1
62|5|10|5
62|5|11|11
62|5|12|6
62|5|13|7
62|5|14|25
62|5|15|8
62|5|16|5
62|5|18|2
62|5|19|6
62|5|20|9
62|5|21|1
63|1|1|1
63|1|2|2
63|1|3|1
63|1|4|1
63|1|5|1
63|1|6|5
63|1|7|3
63|1|9|6
64|1|2|3
64|1|11|1
65|1|1|1
65|1|4|3
65|1|6|1
65|1|7|3
65|1|9|1
65|1|18|2
65|1|19|1
65|1|20|10
65|1|21|2
65|1|22|1
65|1|23|1
65|1|24|8
65|1|25|4
66|1|1|3
66|1|2|1
66|1|3|2
66|1|4|7
66|1|5|14
66|1|6|7
66|1|7|6
66|1|8|10
66|1|10|2
66|1|12|1
66|1|13|1
66|1|14|2
66|1|16|4
66|1|17|2
66|1|18|2
66|1|19|2
66|2|2|1
66|2|3|4
66|2|4|7
66|2|5|4
66|2|7|11
66|2|8|2
66|2|9|2
66|2|10|11
66|2|11|4
66|2|12|1
66|2|13|1
66|2|14|1
66|2|16|2
66|2|17|4
66|2|19|2
66|2|20|1
66|2|23|4
66|2|24|2
66|2|25|1
66|2|26|1
66|2|28|2
66|2|29|1
66|3|1|2
66|3|2|1
66|3|3|4
66|3|5|8
66|3|6|1
66|3|7|4
66|3|8|7
66|3|9|2
66|3|10|4
66|3|11|6
66|3|12|4
66|3|13|1
66|3|14|9
66|3|15|4
66|3|16|1
66|3|17|2
66|3|18|2
66|3|19|5
66|3|20|12
66|3|21|6
66|3|22|1
66|4|1|3
66|4|2|2
66|4|3|1
66|4|5|1
66|4|6|1
66|4|7|3
66|4|8|4
66|4|9|1
66|4|11|12
66|5|1|2
66|5|5|5
66|5|6|3
66|5|8|4
66|5|9|14
66|5|10|2
66|5|11|1
66|5|12|5
66|5|13|3
66|5|14|3
66|6|10|2
66|6|12|2
66|6|14|2
66|7|9|3
66|7|10|2
66|7|12|2
66|7|14|11
66|7|15|3
66|7|16|1
66|7|17|19
66|8|3|1
66|8|4|1
66|9|4|1
66|10|6|1
66|10|7|3
66|10|9|3
66|10|10|1
66|11|5|1
66|11|12|2
66|11|15|5
66|11|17|1
66|12|3|1
66|12|7|2
66|12|9|6
66|12|10|3
66|12|11|14
66|12|12|1
66|12|17|2
66|13|1|1
66|13|7|1
66|13|8|22
66|13|9|1
66|14|1|2
66|14|3|1
66|14|6|2
66|14|7|1
66|14|8|1
66|14|12|1
66|14|14|2
66|15|2|1
66|15|3|3
66|15|4|3
66|15|8|1
66|16|15|3
66|17|8|3
66|17|14|5
66|18|4|2
66|18|20|1
66|19|1|9
66|19|2|1
66|19|5|1
66|19|6|1
66|19|7|6
66|19|8|1
66|19|9|1
66|19|11|2
66|19|13|4
66|19|15|2
66|19|16|4
66|19|20|1
66|19|21|1
66|20|4|2
66|20|6|3
66|20|7|1
66|20|10|3
66|20|11|2
66|20|12|7
66|20|14|2
66|20|15|6
66|21|1|7
66|21|2|2
66|21|3|4
66|21|4|12
66|21|5|4
66|21|6|9
66|21|7|4
66|21|8|14
66|21|9|1
66|21|11|1
66|21|22|1
66|21|23|6
66|21|27|2
66|22|1|17
66|22|2|6
66|22|3|19
66|22|4|3
66|22|5|1
66|22|6|1
66|22|7|4
66|22|11|4
66|22|12|6
66|22|13|5
66|22|14|6
66|22|15|2
66|22|16|6
66|22|17|13
66|22|18|3
66|22|20|1
